simulation/qsim/TP2_EV21.msim.vcd
$comment
	File created using the following command:
		vcd file TP2_EV21.msim.vcd -direction
$end
$date
	Sat May 22 03:29:15 2021
$end
$version
	ModelSim Version 2020.1
$end
$timescale
	1ps
$end

$scope module TP2_EV21_vlg_vec_tst $end
$var reg 7 ! addr [6:0] $end
$var reg 1 " clk $end
$var reg 1 # en $end
$var wire 1 $ mir_out [32] $end
$var wire 1 % mir_out [31] $end
$var wire 1 & mir_out [30] $end
$var wire 1 ' mir_out [29] $end
$var wire 1 ( mir_out [28] $end
$var wire 1 ) mir_out [27] $end
$var wire 1 * mir_out [26] $end
$var wire 1 + mir_out [25] $end
$var wire 1 , mir_out [24] $end
$var wire 1 - mir_out [23] $end
$var wire 1 . mir_out [22] $end
$var wire 1 / mir_out [21] $end
$var wire 1 0 mir_out [20] $end
$var wire 1 1 mir_out [19] $end
$var wire 1 2 mir_out [18] $end
$var wire 1 3 mir_out [17] $end
$var wire 1 4 mir_out [16] $end
$var wire 1 5 mir_out [15] $end
$var wire 1 6 mir_out [14] $end
$var wire 1 7 mir_out [13] $end
$var wire 1 8 mir_out [12] $end
$var wire 1 9 mir_out [11] $end
$var wire 1 : mir_out [10] $end
$var wire 1 ; mir_out [9] $end
$var wire 1 < mir_out [8] $end
$var wire 1 = mir_out [7] $end
$var wire 1 > mir_out [6] $end
$var wire 1 ? mir_out [5] $end
$var wire 1 @ mir_out [4] $end
$var wire 1 A mir_out [3] $end
$var wire 1 B mir_out [2] $end
$var wire 1 C mir_out [1] $end
$var wire 1 D mir_out [0] $end

$scope module i1 $end
$var wire 1 E gnd $end
$var wire 1 F vcc $end
$var wire 1 G unknown $end
$var tri1 1 H devclrn $end
$var tri1 1 I devpor $end
$var tri1 1 J devoe $end
$var wire 1 K mir_out[32]~output_o $end
$var wire 1 L mir_out[31]~output_o $end
$var wire 1 M mir_out[30]~output_o $end
$var wire 1 N mir_out[29]~output_o $end
$var wire 1 O mir_out[28]~output_o $end
$var wire 1 P mir_out[27]~output_o $end
$var wire 1 Q mir_out[26]~output_o $end
$var wire 1 R mir_out[25]~output_o $end
$var wire 1 S mir_out[24]~output_o $end
$var wire 1 T mir_out[23]~output_o $end
$var wire 1 U mir_out[22]~output_o $end
$var wire 1 V mir_out[21]~output_o $end
$var wire 1 W mir_out[20]~output_o $end
$var wire 1 X mir_out[19]~output_o $end
$var wire 1 Y mir_out[18]~output_o $end
$var wire 1 Z mir_out[17]~output_o $end
$var wire 1 [ mir_out[16]~output_o $end
$var wire 1 \ mir_out[15]~output_o $end
$var wire 1 ] mir_out[14]~output_o $end
$var wire 1 ^ mir_out[13]~output_o $end
$var wire 1 _ mir_out[12]~output_o $end
$var wire 1 ` mir_out[11]~output_o $end
$var wire 1 a mir_out[10]~output_o $end
$var wire 1 b mir_out[9]~output_o $end
$var wire 1 c mir_out[8]~output_o $end
$var wire 1 d mir_out[7]~output_o $end
$var wire 1 e mir_out[6]~output_o $end
$var wire 1 f mir_out[5]~output_o $end
$var wire 1 g mir_out[4]~output_o $end
$var wire 1 h mir_out[3]~output_o $end
$var wire 1 i mir_out[2]~output_o $end
$var wire 1 j mir_out[1]~output_o $end
$var wire 1 k mir_out[0]~output_o $end
$var wire 1 l clk~input_o $end
$var wire 1 m clk~inputclkctrl_outclk $end
$var wire 1 n addr[0]~input_o $end
$var wire 1 o addr[1]~input_o $end
$var wire 1 p addr[2]~input_o $end
$var wire 1 q addr[3]~input_o $end
$var wire 1 r addr[4]~input_o $end
$var wire 1 s addr[5]~input_o $end
$var wire 1 t addr[6]~input_o $end
$var wire 1 u en~input_o $end
$var wire 1 v MIR_ROM|srom|rom_block|auto_generated|q_a [32] $end
$var wire 1 w MIR_ROM|srom|rom_block|auto_generated|q_a [31] $end
$var wire 1 x MIR_ROM|srom|rom_block|auto_generated|q_a [30] $end
$var wire 1 y MIR_ROM|srom|rom_block|auto_generated|q_a [29] $end
$var wire 1 z MIR_ROM|srom|rom_block|auto_generated|q_a [28] $end
$var wire 1 { MIR_ROM|srom|rom_block|auto_generated|q_a [27] $end
$var wire 1 | MIR_ROM|srom|rom_block|auto_generated|q_a [26] $end
$var wire 1 } MIR_ROM|srom|rom_block|auto_generated|q_a [25] $end
$var wire 1 ~ MIR_ROM|srom|rom_block|auto_generated|q_a [24] $end
$var wire 1 !! MIR_ROM|srom|rom_block|auto_generated|q_a [23] $end
$var wire 1 "! MIR_ROM|srom|rom_block|auto_generated|q_a [22] $end
$var wire 1 #! MIR_ROM|srom|rom_block|auto_generated|q_a [21] $end
$var wire 1 $! MIR_ROM|srom|rom_block|auto_generated|q_a [20] $end
$var wire 1 %! MIR_ROM|srom|rom_block|auto_generated|q_a [19] $end
$var wire 1 &! MIR_ROM|srom|rom_block|auto_generated|q_a [18] $end
$var wire 1 '! MIR_ROM|srom|rom_block|auto_generated|q_a [17] $end
$var wire 1 (! MIR_ROM|srom|rom_block|auto_generated|q_a [16] $end
$var wire 1 )! MIR_ROM|srom|rom_block|auto_generated|q_a [15] $end
$var wire 1 *! MIR_ROM|srom|rom_block|auto_generated|q_a [14] $end
$var wire 1 +! MIR_ROM|srom|rom_block|auto_generated|q_a [13] $end
$var wire 1 ,! MIR_ROM|srom|rom_block|auto_generated|q_a [12] $end
$var wire 1 -! MIR_ROM|srom|rom_block|auto_generated|q_a [11] $end
$var wire 1 .! MIR_ROM|srom|rom_block|auto_generated|q_a [10] $end
$var wire 1 /! MIR_ROM|srom|rom_block|auto_generated|q_a [9] $end
$var wire 1 0! MIR_ROM|srom|rom_block|auto_generated|q_a [8] $end
$var wire 1 1! MIR_ROM|srom|rom_block|auto_generated|q_a [7] $end
$var wire 1 2! MIR_ROM|srom|rom_block|auto_generated|q_a [6] $end
$var wire 1 3! MIR_ROM|srom|rom_block|auto_generated|q_a [5] $end
$var wire 1 4! MIR_ROM|srom|rom_block|auto_generated|q_a [4] $end
$var wire 1 5! MIR_ROM|srom|rom_block|auto_generated|q_a [3] $end
$var wire 1 6! MIR_ROM|srom|rom_block|auto_generated|q_a [2] $end
$var wire 1 7! MIR_ROM|srom|rom_block|auto_generated|q_a [1] $end
$var wire 1 8! MIR_ROM|srom|rom_block|auto_generated|q_a [0] $end
$var wire 1 9! MIR_ROM|srom|rom_block|auto_generated|ram_block1a0_PORTADATAOUT_bus [35] $end
$var wire 1 :! MIR_ROM|srom|rom_block|auto_generated|ram_block1a0_PORTADATAOUT_bus [34] $end
$var wire 1 ;! MIR_ROM|srom|rom_block|auto_generated|ram_block1a0_PORTADATAOUT_bus [33] $end
$var wire 1 <! MIR_ROM|srom|rom_block|auto_generated|ram_block1a0_PORTADATAOUT_bus [32] $end
$var wire 1 =! MIR_ROM|srom|rom_block|auto_generated|ram_block1a0_PORTADATAOUT_bus [31] $end
$var wire 1 >! MIR_ROM|srom|rom_block|auto_generated|ram_block1a0_PORTADATAOUT_bus [30] $end
$var wire 1 ?! MIR_ROM|srom|rom_block|auto_generated|ram_block1a0_PORTADATAOUT_bus [29] $end
$var wire 1 @! MIR_ROM|srom|rom_block|auto_generated|ram_block1a0_PORTADATAOUT_bus [28] $end
$var wire 1 A! MIR_ROM|srom|rom_block|auto_generated|ram_block1a0_PORTADATAOUT_bus [27] $end
$var wire 1 B! MIR_ROM|srom|rom_block|auto_generated|ram_block1a0_PORTADATAOUT_bus [26] $end
$var wire 1 C! MIR_ROM|srom|rom_block|auto_generated|ram_block1a0_PORTADATAOUT_bus [25] $end
$var wire 1 D! MIR_ROM|srom|rom_block|auto_generated|ram_block1a0_PORTADATAOUT_bus [24] $end
$var wire 1 E! MIR_ROM|srom|rom_block|auto_generated|ram_block1a0_PORTADATAOUT_bus [23] $end
$var wire 1 F! MIR_ROM|srom|rom_block|auto_generated|ram_block1a0_PORTADATAOUT_bus [22] $end
$var wire 1 G! MIR_ROM|srom|rom_block|auto_generated|ram_block1a0_PORTADATAOUT_bus [21] $end
$var wire 1 H! MIR_ROM|srom|rom_block|auto_generated|ram_block1a0_PORTADATAOUT_bus [20] $end
$var wire 1 I! MIR_ROM|srom|rom_block|auto_generated|ram_block1a0_PORTADATAOUT_bus [19] $end
$var wire 1 J! MIR_ROM|srom|rom_block|auto_generated|ram_block1a0_PORTADATAOUT_bus [18] $end
$var wire 1 K! MIR_ROM|srom|rom_block|auto_generated|ram_block1a0_PORTADATAOUT_bus [17] $end
$var wire 1 L! MIR_ROM|srom|rom_block|auto_generated|ram_block1a0_PORTADATAOUT_bus [16] $end
$var wire 1 M! MIR_ROM|srom|rom_block|auto_generated|ram_block1a0_PORTADATAOUT_bus [15] $end
$var wire 1 N! MIR_ROM|srom|rom_block|auto_generated|ram_block1a0_PORTADATAOUT_bus [14] $end
$var wire 1 O! MIR_ROM|srom|rom_block|auto_generated|ram_block1a0_PORTADATAOUT_bus [13] $end
$var wire 1 P! MIR_ROM|srom|rom_block|auto_generated|ram_block1a0_PORTADATAOUT_bus [12] $end
$var wire 1 Q! MIR_ROM|srom|rom_block|auto_generated|ram_block1a0_PORTADATAOUT_bus [11] $end
$var wire 1 R! MIR_ROM|srom|rom_block|auto_generated|ram_block1a0_PORTADATAOUT_bus [10] $end
$var wire 1 S! MIR_ROM|srom|rom_block|auto_generated|ram_block1a0_PORTADATAOUT_bus [9] $end
$var wire 1 T! MIR_ROM|srom|rom_block|auto_generated|ram_block1a0_PORTADATAOUT_bus [8] $end
$var wire 1 U! MIR_ROM|srom|rom_block|auto_generated|ram_block1a0_PORTADATAOUT_bus [7] $end
$var wire 1 V! MIR_ROM|srom|rom_block|auto_generated|ram_block1a0_PORTADATAOUT_bus [6] $end
$var wire 1 W! MIR_ROM|srom|rom_block|auto_generated|ram_block1a0_PORTADATAOUT_bus [5] $end
$var wire 1 X! MIR_ROM|srom|rom_block|auto_generated|ram_block1a0_PORTADATAOUT_bus [4] $end
$var wire 1 Y! MIR_ROM|srom|rom_block|auto_generated|ram_block1a0_PORTADATAOUT_bus [3] $end
$var wire 1 Z! MIR_ROM|srom|rom_block|auto_generated|ram_block1a0_PORTADATAOUT_bus [2] $end
$var wire 1 [! MIR_ROM|srom|rom_block|auto_generated|ram_block1a0_PORTADATAOUT_bus [1] $end
$var wire 1 \! MIR_ROM|srom|rom_block|auto_generated|ram_block1a0_PORTADATAOUT_bus [0] $end
$upscope $end
$upscope $end
$enddefinitions $end
#0
$dumpvars
b0 !
0"
1#
0D
0C
0B
0A
0@
0?
0>
0=
0<
0;
0:
09
08
07
06
05
04
03
02
01
00
0/
0.
0-
0,
0+
0*
0)
0(
0'
0&
0%
0$
0E
1F
xG
1H
1I
1J
0K
0L
0M
0N
0O
0P
0Q
0R
0S
0T
0U
0V
0W
0X
0Y
0Z
0[
0\
0]
0^
0_
0`
0a
0b
0c
0d
0e
0f
0g
0h
0i
0j
0k
0l
0m
0n
0o
0p
0q
0r
0s
0t
1u
08!
07!
06!
05!
04!
03!
02!
01!
00!
0/!
0.!
0-!
0,!
0+!
0*!
0)!
0(!
0'!
0&!
0%!
0$!
0#!
0"!
0!!
0~
0}
0|
0{
0z
0y
0x
0w
0v
0\!
0[!
0Z!
0Y!
0X!
0W!
0V!
0U!
0T!
0S!
0R!
0Q!
0P!
0O!
0N!
0M!
0L!
0K!
0J!
0I!
0H!
0G!
0F!
0E!
0D!
0C!
0B!
0A!
0@!
0?!
0>!
0=!
0<!
0;!
0:!
09!
$end
#50
1"
1l
1m
#100
0"
0l
0m
1W!
1V!
1O!
1K!
1I!
1E!
1?!
1>!
13!
12!
1+!
1'!
1%!
1!!
1y
1x
1M
1N
1T
1X
1Z
1^
1e
1f
1?
1>
17
13
11
1-
1'
1&
#150
1"
1l
1m
#200
0"
0l
0m
#250
1"
1l
1m
#300
0"
0l
0m
#350
1"
1l
1m
#400
0"
0l
0m
#450
1"
1l
1m
#500
0"
0l
0m
#550
1"
1l
1m
#600
0"
0l
0m
#650
1"
1l
1m
#700
0"
0l
0m
#750
1"
1l
1m
#800
0"
0l
0m
#850
1"
1l
1m
#900
0"
0l
0m
#950
1"
1l
1m
#1000
0"
0l
0m
#1050
1"
1l
1m
#1100
0"
0l
0m
#1150
1"
1l
1m
#1200
0"
0l
0m
#1250
1"
1l
1m
#1300
0"
0l
0m
#1350
1"
1l
1m
#1400
0"
0l
0m
#1450
1"
1l
1m
#1500
0"
0l
0m
#1550
1"
1l
1m
#1600
0"
0l
0m
#1650
1"
1l
1m
#1700
0"
0l
0m
#1750
1"
1l
1m
#1800
0"
0l
0m
#1850
1"
1l
1m
#1900
0"
0l
0m
#1950
1"
1l
1m
#2000
b1 !
0"
1n
0l
0m
#2050
1"
1l
1m
#2100
0"
0l
0m
0W!
0V!
1R!
1P!
0I!
0E!
1<!
03!
02!
1.!
1,!
0%!
0!!
1v
1K
0T
0X
1_
1a
0e
0f
0?
0>
1:
18
01
0-
1$
#2150
1"
1l
1m
#2200
0"
0l
0m
#2250
1"
1l
1m
#2300
0"
0l
0m
#2350
1"
1l
1m
#2400
0"
0l
0m
#2450
1"
1l
1m
#2500
0"
0l
0m
#2550
1"
1l
1m
#2600
0"
0l
0m
#2650
1"
1l
1m
#2700
0"
0l
0m
#2750
1"
1l
1m
#2800
0"
0l
0m
#2850
1"
1l
1m
#2900
0"
0l
0m
#2950
1"
1l
1m
#3000
0"
0l
0m
#3050
1"
1l
1m
#3100
0"
0l
0m
#3150
1"
1l
1m
#3200
0"
0l
0m
#3250
1"
1l
1m
#3300
0"
0l
0m
#3350
1"
1l
1m
#3400
0"
0l
0m
#3450
1"
1l
1m
#3500
0"
0l
0m
#3550
1"
1l
1m
#3600
0"
0l
0m
#3650
1"
1l
1m
#3700
0"
0l
0m
#3750
1"
1l
1m
#3800
0"
0l
0m
#3850
1"
1l
1m
#3900
0"
0l
0m
#3950
1"
1l
1m
#4000
b11 !
b10 !
0"
0n
1o
0l
0m
#4050
1"
1l
1m
#4100
0"
0l
0m
0?!
0>!
1=!
0y
0x
1w
1L
0M
0N
0'
0&
1%
#4150
1"
1l
1m
#4200
0"
0l
0m
#4250
1"
1l
1m
#4300
0"
0l
0m
#4350
1"
1l
1m
#4400
0"
0l
0m
#4450
1"
1l
1m
#4500
0"
0l
0m
#4550
1"
1l
1m
#4600
0"
0l
0m
#4650
1"
1l
1m
#4700
0"
0l
0m
#4750
1"
1l
1m
#4800
0"
0l
0m
#4850
1"
1l
1m
#4900
0"
0l
0m
#4950
1"
1l
1m
#5000
0"
0l
0m
#5050
1"
1l
1m
#5100
0"
0l
0m
#5150
1"
1l
1m
#5200
0"
0l
0m
#5250
1"
1l
1m
#5300
0"
0l
0m
#5350
1"
1l
1m
#5400
0"
0l
0m
#5450
1"
1l
1m
#5500
0"
0l
0m
#5550
1"
1l
1m
#5600
0"
0l
0m
#5650
1"
1l
1m
#5700
0"
0l
0m
#5750
1"
1l
1m
#5800
0"
0l
0m
#5850
1"
1l
1m
#5900
0"
0l
0m
#5950
1"
1l
1m
#6000
b11 !
0"
1n
0l
0m
#6050
1"
1l
1m
#6100
0"
0l
0m
0R!
1Q!
0=!
0<!
0.!
1-!
0w
0v
0K
0L
1`
0a
0:
19
0%
0$
#6150
1"
1l
1m
#6200
0"
0l
0m
#6250
1"
1l
1m
#6300
0"
0l
0m
#6350
1"
1l
1m
#6400
0"
0l
0m
#6450
1"
1l
1m
#6500
0"
0l
0m
#6550
1"
1l
1m
#6600
0"
0l
0m
#6650
1"
1l
1m
#6700
0"
0l
0m
#6750
1"
1l
1m
#6800
0"
0l
0m
#6850
1"
1l
1m
#6900
0"
0l
0m
#6950
1"
1l
1m
#7000
0"
0l
0m
#7050
1"
1l
1m
#7100
0"
0l
0m
#7150
1"
1l
1m
#7200
0"
0l
0m
#7250
1"
1l
1m
#7300
0"
0l
0m
#7350
1"
1l
1m
#7400
0"
0l
0m
#7450
1"
1l
1m
#7500
0"
0l
0m
#7550
1"
1l
1m
#7600
0"
0l
0m
#7650
1"
1l
1m
#7700
0"
0l
0m
#7750
1"
1l
1m
#7800
0"
0l
0m
#7850
1"
1l
1m
#7900
0"
0l
0m
#7950
1"
1l
1m
#8000
b111 !
b101 !
b100 !
0"
0n
0o
1p
0l
0m
#8050
1"
1l
1m
#8100
0"
0l
0m
1V!
1U!
0Q!
0P!
12!
11!
0-!
0,!
0_
0`
1d
1e
1>
1=
09
08
#8150
1"
1l
1m
#8200
0"
0l
0m
#8250
1"
1l
1m
#8300
0"
0l
0m
#8350
1"
1l
1m
#8400
0"
0l
0m
#8450
1"
1l
1m
#8500
0"
0l
0m
#8550
1"
1l
1m
#8600
0"
0l
0m
#8650
1"
1l
1m
#8700
0"
0l
0m
#8750
1"
1l
1m
#8800
0"
0l
0m
#8850
1"
1l
1m
#8900
0"
0l
0m
#8950
1"
1l
1m
#9000
0"
0l
0m
#9050
1"
1l
1m
#9100
0"
0l
0m
#9150
1"
1l
1m
#9200
0"
0l
0m
#9250
1"
1l
1m
#9300
0"
0l
0m
#9350
1"
1l
1m
#9400
0"
0l
0m
#9450
1"
1l
1m
#9500
0"
0l
0m
#9550
1"
1l
1m
#9600
0"
0l
0m
#9650
1"
1l
1m
#9700
0"
0l
0m
#9750
1"
1l
1m
#9800
0"
0l
0m
#9850
1"
1l
1m
#9900
0"
0l
0m
#9950
1"
1l
1m
#10000
b101 !
0"
1n
0l
0m
#10050
1"
1l
1m
#10100
0"
0l
0m
1W!
1I!
1E!
1?!
1>!
1=!
13!
1%!
1!!
1y
1x
1w
1L
1M
1N
1T
1X
1f
1?
11
1-
1'
1&
1%
#10150
1"
1l
1m
#10200
0"
0l
0m
#10250
1"
1l
1m
#10300
0"
0l
0m
#10350
1"
1l
1m
#10400
0"
0l
0m
#10450
1"
1l
1m
#10500
0"
0l
0m
#10550
1"
1l
1m
#10600
0"
0l
0m
#10650
1"
1l
1m
#10700
0"
0l
0m
#10750
1"
1l
1m
#10800
0"
0l
0m
#10850
1"
1l
1m
#10900
0"
0l
0m
#10950
1"
1l
1m
#11000
0"
0l
0m
#11050
1"
1l
1m
#11100
0"
0l
0m
#11150
1"
1l
1m
#11200
0"
0l
0m
#11250
1"
1l
1m
#11300
0"
0l
0m
#11350
1"
1l
1m
#11400
0"
0l
0m
#11450
1"
1l
1m
#11500
0"
0l
0m
#11550
1"
1l
1m
#11600
0"
0l
0m
#11650
1"
1l
1m
#11700
0"
0l
0m
#11750
1"
1l
1m
#11800
0"
0l
0m
#11850
1"
1l
1m
#11900
0"
0l
0m
#11950
1"
1l
1m
#12000
b111 !
b110 !
0"
0n
1o
0l
0m
#12050
1"
1l
1m
#12100
0"
0l
0m
0?!
0y
0N
0'
#12150
1"
1l
1m
#12200
0"
0l
0m
#12250
1"
1l
1m
#12300
0"
0l
0m
#12350
1"
1l
1m
#12400
0"
0l
0m
#12450
1"
1l
1m
#12500
0"
0l
0m
#12550
1"
1l
1m
#12600
0"
0l
0m
#12650
1"
1l
1m
#12700
0"
0l
0m
#12750
1"
1l
1m
#12800
0"
0l
0m
#12850
1"
1l
1m
#12900
0"
0l
0m
#12950
1"
1l
1m
#13000
0"
0l
0m
#13050
1"
1l
1m
#13100
0"
0l
0m
#13150
1"
1l
1m
#13200
0"
0l
0m
#13250
1"
1l
1m
#13300
0"
0l
0m
#13350
1"
1l
1m
#13400
0"
0l
0m
#13450
1"
1l
1m
#13500
0"
0l
0m
#13550
1"
1l
1m
#13600
0"
0l
0m
#13650
1"
1l
1m
#13700
0"
0l
0m
#13750
1"
1l
1m
#13800
0"
0l
0m
#13850
1"
1l
1m
#13900
0"
0l
0m
#13950
1"
1l
1m
#14000
b111 !
0"
1n
0l
0m
#14050
1"
1l
1m
#14100
0"
0l
0m
1S!
1R!
1?!
0>!
1/!
1.!
1y
0x
0M
1N
1a
1b
1;
1:
1'
0&
#14150
1"
1l
1m
#14200
0"
0l
0m
#14250
1"
1l
1m
#14300
0"
0l
0m
#14350
1"
1l
1m
#14400
0"
0l
0m
#14450
1"
1l
1m
#14500
0"
0l
0m
#14550
1"
1l
1m
#14600
0"
0l
0m
#14650
1"
1l
1m
#14700
0"
0l
0m
#14750
1"
1l
1m
#14800
0"
0l
0m
#14850
1"
1l
1m
#14900
0"
0l
0m
#14950
1"
1l
1m
#15000
0"
0l
0m
#15050
1"
1l
1m
#15100
0"
0l
0m
#15150
1"
1l
1m
#15200
0"
0l
0m
#15250
1"
1l
1m
#15300
0"
0l
0m
#15350
1"
1l
1m
#15400
0"
0l
0m
#15450
1"
1l
1m
#15500
0"
0l
0m
#15550
1"
1l
1m
#15600
0"
0l
0m
#15650
1"
1l
1m
#15700
0"
0l
0m
#15750
1"
1l
1m
#15800
0"
0l
0m
#15850
1"
1l
1m
#15900
0"
0l
0m
#15950
1"
1l
1m
#16000
b1111 !
b1011 !
b1001 !
b1000 !
0"
0n
0o
0p
1q
0l
0m
#16050
1"
1l
1m
#16100
0"
0l
0m
0W!
0U!
0S!
0R!
0I!
0E!
1B!
0?!
0=!
03!
01!
0/!
0.!
0%!
0!!
1|
0y
0w
0L
0N
1Q
0T
0X
0a
0b
0d
0f
0?
0=
0;
0:
01
0-
1*
0'
0%
#16150
1"
1l
1m
#16200
0"
0l
0m
#16250
1"
1l
1m
#16300
0"
0l
0m
#16350
1"
1l
1m
#16400
0"
0l
0m
#16450
1"
1l
1m
#16500
0"
0l
0m
#16550
1"
1l
1m
#16600
0"
0l
0m
#16650
1"
1l
1m
#16700
0"
0l
0m
#16750
1"
1l
1m
#16800
0"
0l
0m
#16850
1"
1l
1m
#16900
0"
0l
0m
#16950
1"
1l
1m
#17000
0"
0l
0m
#17050
1"
1l
1m
#17100
0"
0l
0m
#17150
1"
1l
1m
#17200
0"
0l
0m
#17250
1"
1l
1m
#17300
0"
0l
0m
#17350
1"
1l
1m
#17400
0"
0l
0m
#17450
1"
1l
1m
#17500
0"
0l
0m
#17550
1"
1l
1m
#17600
0"
0l
0m
#17650
1"
1l
1m
#17700
0"
0l
0m
#17750
1"
1l
1m
#17800
0"
0l
0m
#17850
1"
1l
1m
#17900
0"
0l
0m
#17950
1"
1l
1m
#18000
b1001 !
0"
1n
0l
0m
#18050
1"
1l
1m
#18100
0"
0l
0m
#18150
1"
1l
1m
#18200
0"
0l
0m
#18250
1"
1l
1m
#18300
0"
0l
0m
#18350
1"
1l
1m
#18400
0"
0l
0m
#18450
1"
1l
1m
#18500
0"
0l
0m
#18550
1"
1l
1m
#18600
0"
0l
0m
#18650
1"
1l
1m
#18700
0"
0l
0m
#18750
1"
1l
1m
#18800
0"
0l
0m
#18850
1"
1l
1m
#18900
0"
0l
0m
#18950
1"
1l
1m
#19000
0"
0l
0m
#19050
1"
1l
1m
#19100
0"
0l
0m
#19150
1"
1l
1m
#19200
0"
0l
0m
#19250
1"
1l
1m
#19300
0"
0l
0m
#19350
1"
1l
1m
#19400
0"
0l
0m
#19450
1"
1l
1m
#19500
0"
0l
0m
#19550
1"
1l
1m
#19600
0"
0l
0m
#19650
1"
1l
1m
#19700
0"
0l
0m
#19750
1"
1l
1m
#19800
0"
0l
0m
#19850
1"
1l
1m
#19900
0"
0l
0m
#19950
1"
1l
1m
#20000
b1011 !
b1010 !
0"
0n
1o
0l
0m
#20050
1"
1l
1m
#20100
0"
0l
0m
1W!
1I!
1E!
1?!
1>!
1=!
13!
1%!
1!!
1y
1x
1w
1L
1M
1N
1T
1X
1f
1?
11
1-
1'
1&
1%
#20150
1"
1l
1m
#20200
0"
0l
0m
#20250
1"
1l
1m
#20300
0"
0l
0m
#20350
1"
1l
1m
#20400
0"
0l
0m
#20450
1"
1l
1m
#20500
0"
0l
0m
#20550
1"
1l
1m
#20600
0"
0l
0m
#20650
1"
1l
1m
#20700
0"
0l
0m
#20750
1"
1l
1m
#20800
0"
0l
0m
#20850
1"
1l
1m
#20900
0"
0l
0m
#20950
1"
1l
1m
#21000
0"
0l
0m
#21050
1"
1l
1m
#21100
0"
0l
0m
#21150
1"
1l
1m
#21200
0"
0l
0m
#21250
1"
1l
1m
#21300
0"
0l
0m
#21350
1"
1l
1m
#21400
0"
0l
0m
#21450
1"
1l
1m
#21500
0"
0l
0m
#21550
1"
1l
1m
#21600
0"
0l
0m
#21650
1"
1l
1m
#21700
0"
0l
0m
#21750
1"
1l
1m
#21800
0"
0l
0m
#21850
1"
1l
1m
#21900
0"
0l
0m
#21950
1"
1l
1m
#22000
b1011 !
0"
1n
0l
0m
#22050
1"
1l
1m
#22100
0"
0l
0m
#22150
1"
1l
1m
#22200
0"
0l
0m
#22250
1"
1l
1m
#22300
0"
0l
0m
#22350
1"
1l
1m
#22400
0"
0l
0m
#22450
1"
1l
1m
#22500
0"
0l
0m
#22550
1"
1l
1m
#22600
0"
0l
0m
#22650
1"
1l
1m
#22700
0"
0l
0m
#22750
1"
1l
1m
#22800
0"
0l
0m
#22850
1"
1l
1m
#22900
0"
0l
0m
#22950
1"
1l
1m
#23000
0"
0l
0m
#23050
1"
1l
1m
#23100
0"
0l
0m
#23150
1"
1l
1m
#23200
0"
0l
0m
#23250
1"
1l
1m
#23300
0"
0l
0m
#23350
1"
1l
1m
#23400
0"
0l
0m
#23450
1"
1l
1m
#23500
0"
0l
0m
#23550
1"
1l
1m
#23600
0"
0l
0m
#23650
1"
1l
1m
#23700
0"
0l
0m
#23750
1"
1l
1m
#23800
0"
0l
0m
#23850
1"
1l
1m
#23900
0"
0l
0m
#23950
1"
1l
1m
#24000
b1111 !
b1101 !
b1100 !
0"
0n
0o
1p
0l
0m
#24050
1"
1l
1m
#24100
0"
0l
0m
0?!
0y
0N
0'
#24150
1"
1l
1m
#24200
0"
0l
0m
#24250
1"
1l
1m
#24300
0"
0l
0m
#24350
1"
1l
1m
#24400
0"
0l
0m
#24450
1"
1l
1m
#24500
0"
0l
0m
#24550
1"
1l
1m
#24600
0"
0l
0m
#24650
1"
1l
1m
#24700
0"
0l
0m
#24750
1"
1l
1m
#24800
0"
0l
0m
#24850
1"
1l
1m
#24900
0"
0l
0m
#24950
1"
1l
1m
#25000
0"
0l
0m
#25050
1"
1l
1m
#25100
0"
0l
0m
#25150
1"
1l
1m
#25200
0"
0l
0m
#25250
1"
1l
1m
#25300
0"
0l
0m
#25350
1"
1l
1m
#25400
0"
0l
0m
#25450
1"
1l
1m
#25500
0"
0l
0m
#25550
1"
1l
1m
#25600
0"
0l
0m
#25650
1"
1l
1m
#25700
0"
0l
0m
#25750
1"
1l
1m
#25800
0"
0l
0m
#25850
1"
1l
1m
#25900
0"
0l
0m
#25950
1"
1l
1m
#26000
b1101 !
0"
1n
0l
0m
#26050
1"
1l
1m
#26100
0"
0l
0m
#26150
1"
1l
1m
#26200
0"
0l
0m
#26250
1"
1l
1m
#26300
0"
0l
0m
#26350
1"
1l
1m
#26400
0"
0l
0m
#26450
1"
1l
1m
#26500
0"
0l
0m
#26550
1"
1l
1m
#26600
0"
0l
0m
#26650
1"
1l
1m
#26700
0"
0l
0m
#26750
1"
1l
1m
#26800
0"
0l
0m
#26850
1"
1l
1m
#26900
0"
0l
0m
#26950
1"
1l
1m
#27000
0"
0l
0m
#27050
1"
1l
1m
#27100
0"
0l
0m
#27150
1"
1l
1m
#27200
0"
0l
0m
#27250
1"
1l
1m
#27300
0"
0l
0m
#27350
1"
1l
1m
#27400
0"
0l
0m
#27450
1"
1l
1m
#27500
0"
0l
0m
#27550
1"
1l
1m
#27600
0"
0l
0m
#27650
1"
1l
1m
#27700
0"
0l
0m
#27750
1"
1l
1m
#27800
0"
0l
0m
#27850
1"
1l
1m
#27900
0"
0l
0m
#27950
1"
1l
1m
#28000
b1111 !
b1110 !
0"
0n
1o
0l
0m
#28050
1"
1l
1m
#28100
0"
0l
0m
1S!
1R!
1?!
0>!
1/!
1.!
1y
0x
0M
1N
1a
1b
1;
1:
1'
0&
#28150
1"
1l
1m
#28200
0"
0l
0m
#28250
1"
1l
1m
#28300
0"
0l
0m
#28350
1"
1l
1m
#28400
0"
0l
0m
#28450
1"
1l
1m
#28500
0"
0l
0m
#28550
1"
1l
1m
#28600
0"
0l
0m
#28650
1"
1l
1m
#28700
0"
0l
0m
#28750
1"
1l
1m
#28800
0"
0l
0m
#28850
1"
1l
1m
#28900
0"
0l
0m
#28950
1"
1l
1m
#29000
0"
0l
0m
#29050
1"
1l
1m
#29100
0"
0l
0m
#29150
1"
1l
1m
#29200
0"
0l
0m
#29250
1"
1l
1m
#29300
0"
0l
0m
#29350
1"
1l
1m
#29400
0"
0l
0m
#29450
1"
1l
1m
#29500
0"
0l
0m
#29550
1"
1l
1m
#29600
0"
0l
0m
#29650
1"
1l
1m
#29700
0"
0l
0m
#29750
1"
1l
1m
#29800
0"
0l
0m
#29850
1"
1l
1m
#29900
0"
0l
0m
#29950
1"
1l
1m
#30000
b1111 !
0"
1n
0l
0m
#30050
1"
1l
1m
#30100
0"
0l
0m
#30150
1"
1l
1m
#30200
0"
0l
0m
#30250
1"
1l
1m
#30300
0"
0l
0m
#30350
1"
1l
1m
#30400
0"
0l
0m
#30450
1"
1l
1m
#30500
0"
0l
0m
#30550
1"
1l
1m
#30600
0"
0l
0m
#30650
1"
1l
1m
#30700
0"
0l
0m
#30750
1"
1l
1m
#30800
0"
0l
0m
#30850
1"
1l
1m
#30900
0"
0l
0m
#30950
1"
1l
1m
#31000
0"
0l
0m
#31050
1"
1l
1m
#31100
0"
0l
0m
#31150
1"
1l
1m
#31200
0"
0l
0m
#31250
1"
1l
1m
#31300
0"
0l
0m
#31350
1"
1l
1m
#31400
0"
0l
0m
#31450
1"
1l
1m
#31500
0"
0l
0m
#31550
1"
1l
1m
#31600
0"
0l
0m
#31650
1"
1l
1m
#31700
0"
0l
0m
#31750
1"
1l
1m
#31800
0"
0l
0m
#31850
1"
1l
1m
