simulation/qsim/TP2_EV21.msim.vcd
$comment
	File created using the following command:
		vcd file TP2_EV21.msim.vcd -direction
$end
$date
	Mon May 31 13:52:25 2021
$end
$version
	ModelSim Version 2020.1
$end
$timescale
	1ps
$end

$scope module TP2_EV21_vlg_vec_tst $end
$var reg 1 ! CLK $end
$var reg 11 " DATA_ADD [10:0] $end
$var reg 33 # uIROM [32:0] $end
$var wire 1 $ A [4] $end
$var wire 1 % A [3] $end
$var wire 1 & A [2] $end
$var wire 1 ' A [1] $end
$var wire 1 ( A [0] $end
$var wire 1 ) ALU [3] $end
$var wire 1 * ALU [2] $end
$var wire 1 + ALU [1] $end
$var wire 1 , ALU [0] $end
$var wire 1 - B [5] $end
$var wire 1 . B [4] $end
$var wire 1 / B [3] $end
$var wire 1 0 B [2] $end
$var wire 1 1 B [1] $end
$var wire 1 2 B [0] $end
$var wire 1 3 BRANCH $end
$var wire 1 4 C [5] $end
$var wire 1 5 C [4] $end
$var wire 1 6 C [3] $end
$var wire 1 7 C [2] $end
$var wire 1 8 C [1] $end
$var wire 1 9 C [0] $end
$var wire 1 : DATA_ADD_OUT [10] $end
$var wire 1 ; DATA_ADD_OUT [9] $end
$var wire 1 < DATA_ADD_OUT [8] $end
$var wire 1 = DATA_ADD_OUT [7] $end
$var wire 1 > DATA_ADD_OUT [6] $end
$var wire 1 ? DATA_ADD_OUT [5] $end
$var wire 1 @ DATA_ADD_OUT [4] $end
$var wire 1 A DATA_ADD_OUT [3] $end
$var wire 1 B DATA_ADD_OUT [2] $end
$var wire 1 C DATA_ADD_OUT [1] $end
$var wire 1 D DATA_ADD_OUT [0] $end
$var wire 1 E HOLD $end
$var wire 1 F KMX $end
$var wire 1 G M [1] $end
$var wire 1 H M [0] $end
$var wire 1 I SH [1] $end
$var wire 1 J SH [0] $end

$scope module i1 $end
$var wire 1 K gnd $end
$var wire 1 L vcc $end
$var wire 1 M unknown $end
$var tri1 1 N devclrn $end
$var tri1 1 O devpor $end
$var tri1 1 P devoe $end
$var wire 1 Q KMX~output_o $end
$var wire 1 R BRANCH~output_o $end
$var wire 1 S HOLD~output_o $end
$var wire 1 T A[4]~output_o $end
$var wire 1 U A[3]~output_o $end
$var wire 1 V A[2]~output_o $end
$var wire 1 W A[1]~output_o $end
$var wire 1 X A[0]~output_o $end
$var wire 1 Y ALU[3]~output_o $end
$var wire 1 Z ALU[2]~output_o $end
$var wire 1 [ ALU[1]~output_o $end
$var wire 1 \ ALU[0]~output_o $end
$var wire 1 ] B[5]~output_o $end
$var wire 1 ^ B[4]~output_o $end
$var wire 1 _ B[3]~output_o $end
$var wire 1 ` B[2]~output_o $end
$var wire 1 a B[1]~output_o $end
$var wire 1 b B[0]~output_o $end
$var wire 1 c C[5]~output_o $end
$var wire 1 d C[4]~output_o $end
$var wire 1 e C[3]~output_o $end
$var wire 1 f C[2]~output_o $end
$var wire 1 g C[1]~output_o $end
$var wire 1 h C[0]~output_o $end
$var wire 1 i DATA_ADD_OUT[10]~output_o $end
$var wire 1 j DATA_ADD_OUT[9]~output_o $end
$var wire 1 k DATA_ADD_OUT[8]~output_o $end
$var wire 1 l DATA_ADD_OUT[7]~output_o $end
$var wire 1 m DATA_ADD_OUT[6]~output_o $end
$var wire 1 n DATA_ADD_OUT[5]~output_o $end
$var wire 1 o DATA_ADD_OUT[4]~output_o $end
$var wire 1 p DATA_ADD_OUT[3]~output_o $end
$var wire 1 q DATA_ADD_OUT[2]~output_o $end
$var wire 1 r DATA_ADD_OUT[1]~output_o $end
$var wire 1 s DATA_ADD_OUT[0]~output_o $end
$var wire 1 t M[1]~output_o $end
$var wire 1 u M[0]~output_o $end
$var wire 1 v SH[1]~output_o $end
$var wire 1 w SH[0]~output_o $end
$var wire 1 x uIROM[0]~input_o $end
$var wire 1 y inst|inst2|A3[0]~feeder_combout $end
$var wire 1 z CLK~input_o $end
$var wire 1 { CLK~inputclkctrl_outclk $end
$var wire 1 | inst|inst4|hold_was_used~feeder_combout $end
$var wire 1 } inst|inst4|hold_was_used~q $end
$var wire 1 ~ uIROM[13]~input_o $end
$var wire 1 !! inst|inst2|C3[1]~feeder_combout $end
$var wire 1 "! inst|inst4|C3~5_combout $end
$var wire 1 #! inst|inst4|C3~0_combout $end
$var wire 1 $! inst|inst6|C_out[1]~feeder_combout $end
$var wire 1 %! uIROM[1]~input_o $end
$var wire 1 &! uIROM[12]~input_o $end
$var wire 1 '! inst|inst2|C3[0]~feeder_combout $end
$var wire 1 (! inst|inst4|C3~6_combout $end
$var wire 1 )! inst|inst4|C3~1_combout $end
$var wire 1 *! inst|inst6|C_out[0]~feeder_combout $end
$var wire 1 +! inst|inst8|always0~3_combout $end
$var wire 1 ,! uIROM[6]~input_o $end
$var wire 1 -! inst|inst2|T3[1]~feeder_combout $end
$var wire 1 .! inst|inst4|T3~9_combout $end
$var wire 1 /! inst|inst4|T3~2_combout $end
$var wire 1 0! uIROM[5]~input_o $end
$var wire 1 1! inst|inst2|T3[0]~feeder_combout $end
$var wire 1 2! inst|inst8|HOLD~0_combout $end
$var wire 1 3! inst|inst8|always0~0_combout $end
$var wire 1 4! uIROM[16]~input_o $end
$var wire 1 5! inst|inst2|C3[4]~feeder_combout $end
$var wire 1 6! inst|inst4|C3~9_combout $end
$var wire 1 7! inst|inst4|C3~4_combout $end
$var wire 1 8! uIROM[8]~input_o $end
$var wire 1 9! inst|inst2|T3[3]~feeder_combout $end
$var wire 1 :! inst|inst4|T3~12_combout $end
$var wire 1 ;! inst|inst4|T3~5_combout $end
$var wire 1 <! uIROM[7]~input_o $end
$var wire 1 =! uIROM[4]~input_o $end
$var wire 1 >! inst|inst2|A3[4]~feeder_combout $end
$var wire 1 ?! inst|inst8|always0~2_combout $end
$var wire 1 @! uIROM[14]~input_o $end
$var wire 1 A! inst|inst2|C3[2]~feeder_combout $end
$var wire 1 B! inst|inst4|C3~8_combout $end
$var wire 1 C! inst|inst4|C3~3_combout $end
$var wire 1 D! uIROM[15]~input_o $end
$var wire 1 E! inst|inst2|C3[3]~feeder_combout $end
$var wire 1 F! inst|inst4|C3~7_combout $end
$var wire 1 G! inst|inst4|C3~2_combout $end
$var wire 1 H! uIROM[2]~input_o $end
$var wire 1 I! uIROM[3]~input_o $end
$var wire 1 J! inst|inst8|always0~1_combout $end
$var wire 1 K! inst|inst8|HOLD~1_combout $end
$var wire 1 L! uIROM[10]~input_o $end
$var wire 1 M! inst|inst2|T3[5]~feeder_combout $end
$var wire 1 N! inst|inst4|T3~13_combout $end
$var wire 1 O! inst|inst4|T3~6_combout $end
$var wire 1 P! inst|inst4|T3[5]~feeder_combout $end
$var wire 1 Q! inst|inst6|T_out[5]~feeder_combout $end
$var wire 1 R! uIROM[9]~input_o $end
$var wire 1 S! inst|inst8|HOLD~2_combout $end
$var wire 1 T! inst|inst6|C_out[3]~feeder_combout $end
$var wire 1 U! inst|inst6|C_out[2]~feeder_combout $end
$var wire 1 V! inst|inst8|always0~4_combout $end
$var wire 1 W! inst|inst8|always0~5_combout $end
$var wire 1 X! inst|inst8|always0~6_combout $end
$var wire 1 Y! inst|inst8|HOLD~3_combout $end
$var wire 1 Z! inst|inst9~combout $end
$var wire 1 [! inst|inst9~clkctrl_outclk $end
$var wire 1 \! uIROM[26]~input_o $end
$var wire 1 ]! inst|inst2|KMx3~feeder_combout $end
$var wire 1 ^! inst|inst2|KMx3~q $end
$var wire 1 _! inst|inst4|T3~7_combout $end
$var wire 1 `! inst|inst4|T3~0_combout $end
$var wire 1 a! inst|inst4|T3~10_combout $end
$var wire 1 b! inst|inst4|T3~3_combout $end
$var wire 1 c! inst|inst4|T3~8_combout $end
$var wire 1 d! inst|inst4|T3~1_combout $end
$var wire 1 e! inst|inst8|branch_update~0_combout $end
$var wire 1 f! uIROM[11]~input_o $end
$var wire 1 g! inst|inst2|T3[6]~feeder_combout $end
$var wire 1 h! inst|inst4|T3~11_combout $end
$var wire 1 i! inst|inst4|T3~4_combout $end
$var wire 1 j! inst|inst8|branch_update~1_combout $end
$var wire 1 k! uIROM[32]~input_o $end
$var wire 1 l! inst|inst2|ALU3[3]~feeder_combout $end
$var wire 1 m! inst|inst4|ALU_out~4_combout $end
$var wire 1 n! inst|inst4|ALU_out~0_combout $end
$var wire 1 o! uIROM[31]~input_o $end
$var wire 1 p! inst|inst2|ALU3[2]~feeder_combout $end
$var wire 1 q! inst|inst4|ALU_out~5_combout $end
$var wire 1 r! inst|inst4|ALU_out~1_combout $end
$var wire 1 s! uIROM[30]~input_o $end
$var wire 1 t! inst|inst2|ALU3[1]~feeder_combout $end
$var wire 1 u! inst|inst4|ALU_out~6_combout $end
$var wire 1 v! inst|inst4|ALU_out~2_combout $end
$var wire 1 w! uIROM[29]~input_o $end
$var wire 1 x! inst|inst2|ALU3[0]~feeder_combout $end
$var wire 1 y! inst|inst4|ALU_out~7_combout $end
$var wire 1 z! inst|inst4|ALU_out~3_combout $end
$var wire 1 {! uIROM[23]~input_o $end
$var wire 1 |! inst|inst2|B3[5]~feeder_combout $end
$var wire 1 }! uIROM[22]~input_o $end
$var wire 1 ~! inst|inst2|B3[4]~feeder_combout $end
$var wire 1 !" uIROM[21]~input_o $end
$var wire 1 "" inst|inst2|B3[3]~feeder_combout $end
$var wire 1 #" uIROM[20]~input_o $end
$var wire 1 $" inst|inst2|B3[2]~feeder_combout $end
$var wire 1 %" uIROM[19]~input_o $end
$var wire 1 &" inst|inst2|B3[1]~feeder_combout $end
$var wire 1 '" uIROM[18]~input_o $end
$var wire 1 (" inst|inst2|B3[0]~feeder_combout $end
$var wire 1 )" uIROM[17]~input_o $end
$var wire 1 *" inst|inst2|C3[5]~feeder_combout $end
$var wire 1 +" inst|inst4|C3~11_combout $end
$var wire 1 ," inst|inst4|C3~10_combout $end
$var wire 1 -" inst|inst6|C_out[5]~feeder_combout $end
$var wire 1 ." DATA_ADD[10]~input_o $end
$var wire 1 /" inst|inst2|data_address_out[10]~feeder_combout $end
$var wire 1 0" DATA_ADD[9]~input_o $end
$var wire 1 1" inst|inst2|data_address_out[9]~feeder_combout $end
$var wire 1 2" DATA_ADD[8]~input_o $end
$var wire 1 3" inst|inst2|data_address_out[8]~feeder_combout $end
$var wire 1 4" DATA_ADD[7]~input_o $end
$var wire 1 5" inst|inst2|data_address_out[7]~feeder_combout $end
$var wire 1 6" DATA_ADD[6]~input_o $end
$var wire 1 7" inst|inst2|data_address_out[6]~feeder_combout $end
$var wire 1 8" DATA_ADD[5]~input_o $end
$var wire 1 9" inst|inst2|data_address_out[5]~feeder_combout $end
$var wire 1 :" DATA_ADD[4]~input_o $end
$var wire 1 ;" inst|inst2|data_address_out[4]~feeder_combout $end
$var wire 1 <" DATA_ADD[3]~input_o $end
$var wire 1 =" inst|inst2|data_address_out[3]~feeder_combout $end
$var wire 1 >" DATA_ADD[2]~input_o $end
$var wire 1 ?" inst|inst2|data_address_out[2]~feeder_combout $end
$var wire 1 @" DATA_ADD[1]~input_o $end
$var wire 1 A" inst|inst2|data_address_out[1]~feeder_combout $end
$var wire 1 B" DATA_ADD[0]~input_o $end
$var wire 1 C" inst|inst2|data_address_out[0]~feeder_combout $end
$var wire 1 D" uIROM[25]~input_o $end
$var wire 1 E" inst|inst2|M3[1]~feeder_combout $end
$var wire 1 F" uIROM[24]~input_o $end
$var wire 1 G" inst|inst2|M3[0]~feeder_combout $end
$var wire 1 H" uIROM[28]~input_o $end
$var wire 1 I" inst|inst4|SH_out~2_combout $end
$var wire 1 J" inst|inst4|SH_out~0_combout $end
$var wire 1 K" uIROM[27]~input_o $end
$var wire 1 L" inst|inst2|SH3[0]~feeder_combout $end
$var wire 1 M" inst|inst4|SH_out~3_combout $end
$var wire 1 N" inst|inst4|SH_out~1_combout $end
$var wire 1 O" inst|inst4|T3 [6] $end
$var wire 1 P" inst|inst4|T3 [5] $end
$var wire 1 Q" inst|inst4|T3 [4] $end
$var wire 1 R" inst|inst4|T3 [3] $end
$var wire 1 S" inst|inst4|T3 [2] $end
$var wire 1 T" inst|inst4|T3 [1] $end
$var wire 1 U" inst|inst4|T3 [0] $end
$var wire 1 V" inst|inst4|ALU_out [3] $end
$var wire 1 W" inst|inst4|ALU_out [2] $end
$var wire 1 X" inst|inst4|ALU_out [1] $end
$var wire 1 Y" inst|inst4|ALU_out [0] $end
$var wire 1 Z" inst|inst2|T3 [6] $end
$var wire 1 [" inst|inst2|T3 [5] $end
$var wire 1 \" inst|inst2|T3 [4] $end
$var wire 1 ]" inst|inst2|T3 [3] $end
$var wire 1 ^" inst|inst2|T3 [2] $end
$var wire 1 _" inst|inst2|T3 [1] $end
$var wire 1 `" inst|inst2|T3 [0] $end
$var wire 1 a" inst|inst2|M3 [1] $end
$var wire 1 b" inst|inst2|M3 [0] $end
$var wire 1 c" inst|inst6|T_out [6] $end
$var wire 1 d" inst|inst6|T_out [5] $end
$var wire 1 e" inst|inst6|T_out [4] $end
$var wire 1 f" inst|inst6|T_out [3] $end
$var wire 1 g" inst|inst6|T_out [2] $end
$var wire 1 h" inst|inst6|T_out [1] $end
$var wire 1 i" inst|inst6|T_out [0] $end
$var wire 1 j" inst|inst2|A3 [4] $end
$var wire 1 k" inst|inst2|A3 [3] $end
$var wire 1 l" inst|inst2|A3 [2] $end
$var wire 1 m" inst|inst2|A3 [1] $end
$var wire 1 n" inst|inst2|A3 [0] $end
$var wire 1 o" inst|inst4|C3 [5] $end
$var wire 1 p" inst|inst4|C3 [4] $end
$var wire 1 q" inst|inst4|C3 [3] $end
$var wire 1 r" inst|inst4|C3 [2] $end
$var wire 1 s" inst|inst4|C3 [1] $end
$var wire 1 t" inst|inst4|C3 [0] $end
$var wire 1 u" inst|inst2|C3 [5] $end
$var wire 1 v" inst|inst2|C3 [4] $end
$var wire 1 w" inst|inst2|C3 [3] $end
$var wire 1 x" inst|inst2|C3 [2] $end
$var wire 1 y" inst|inst2|C3 [1] $end
$var wire 1 z" inst|inst2|C3 [0] $end
$var wire 1 {" inst|inst6|C_out [5] $end
$var wire 1 |" inst|inst6|C_out [4] $end
$var wire 1 }" inst|inst6|C_out [3] $end
$var wire 1 ~" inst|inst6|C_out [2] $end
$var wire 1 !# inst|inst6|C_out [1] $end
$var wire 1 "# inst|inst6|C_out [0] $end
$var wire 1 ## inst|inst2|B3 [5] $end
$var wire 1 $# inst|inst2|B3 [4] $end
$var wire 1 %# inst|inst2|B3 [3] $end
$var wire 1 &# inst|inst2|B3 [2] $end
$var wire 1 '# inst|inst2|B3 [1] $end
$var wire 1 (# inst|inst2|B3 [0] $end
$var wire 1 )# inst|inst2|data_address_out [10] $end
$var wire 1 *# inst|inst2|data_address_out [9] $end
$var wire 1 +# inst|inst2|data_address_out [8] $end
$var wire 1 ,# inst|inst2|data_address_out [7] $end
$var wire 1 -# inst|inst2|data_address_out [6] $end
$var wire 1 .# inst|inst2|data_address_out [5] $end
$var wire 1 /# inst|inst2|data_address_out [4] $end
$var wire 1 0# inst|inst2|data_address_out [3] $end
$var wire 1 1# inst|inst2|data_address_out [2] $end
$var wire 1 2# inst|inst2|data_address_out [1] $end
$var wire 1 3# inst|inst2|data_address_out [0] $end
$var wire 1 4# inst|inst4|SH_out [1] $end
$var wire 1 5# inst|inst4|SH_out [0] $end
$var wire 1 6# inst|inst4|T2_save [6] $end
$var wire 1 7# inst|inst4|T2_save [5] $end
$var wire 1 8# inst|inst4|T2_save [4] $end
$var wire 1 9# inst|inst4|T2_save [3] $end
$var wire 1 :# inst|inst4|T2_save [2] $end
$var wire 1 ;# inst|inst4|T2_save [1] $end
$var wire 1 <# inst|inst4|T2_save [0] $end
$var wire 1 =# inst|inst4|C2_save [5] $end
$var wire 1 ># inst|inst4|C2_save [4] $end
$var wire 1 ?# inst|inst4|C2_save [3] $end
$var wire 1 @# inst|inst4|C2_save [2] $end
$var wire 1 A# inst|inst4|C2_save [1] $end
$var wire 1 B# inst|inst4|C2_save [0] $end
$var wire 1 C# inst|inst4|ALU_save [3] $end
$var wire 1 D# inst|inst4|ALU_save [2] $end
$var wire 1 E# inst|inst4|ALU_save [1] $end
$var wire 1 F# inst|inst4|ALU_save [0] $end
$var wire 1 G# inst|inst2|ALU3 [3] $end
$var wire 1 H# inst|inst2|ALU3 [2] $end
$var wire 1 I# inst|inst2|ALU3 [1] $end
$var wire 1 J# inst|inst2|ALU3 [0] $end
$var wire 1 K# inst|inst4|SH_save [1] $end
$var wire 1 L# inst|inst4|SH_save [0] $end
$var wire 1 M# inst|inst2|SH3 [1] $end
$var wire 1 N# inst|inst2|SH3 [0] $end
$upscope $end
$upscope $end
$enddefinitions $end
#0
$dumpvars
0!
bx "
b0 #
0(
0'
0&
0%
0$
0,
0+
0*
0)
02
01
00
0/
0.
0-
03
09
08
07
06
05
04
0D
0C
0B
0A
0@
0?
0>
0=
0<
0;
0:
0E
0F
0H
0G
0J
0I
0K
1L
xM
1N
1O
1P
0Q
0R
0S
0T
0U
0V
0W
0X
0Y
0Z
0[
0\
0]
0^
0_
0`
0a
0b
0c
0d
0e
0f
0g
0h
0i
0j
0k
0l
0m
0n
0o
0p
0q
0r
0s
0t
0u
0v
0w
0x
0y
0z
0{
0|
0}
0~
0!!
0"!
0#!
0$!
0%!
0&!
0'!
0(!
0)!
0*!
1+!
0,!
0-!
0.!
0/!
00!
01!
02!
13!
04!
05!
06!
07!
08!
09!
0:!
0;!
0<!
0=!
0>!
0?!
0@!
0A!
0B!
0C!
0D!
0E!
0F!
0G!
0H!
0I!
1J!
0K!
0L!
0M!
0N!
0O!
0P!
0Q!
0R!
0S!
0T!
0U!
1V!
0W!
0X!
0Y!
0Z!
0[!
0\!
0]!
0^!
0_!
0`!
0a!
0b!
0c!
0d!
0e!
0f!
0g!
0h!
0i!
0j!
0k!
0l!
0m!
0n!
0o!
0p!
0q!
0r!
0s!
0t!
0u!
0v!
0w!
0x!
0y!
0z!
0{!
0|!
0}!
0~!
0!"
0""
0#"
0$"
0%"
0&"
0'"
0("
0)"
0*"
0+"
0,"
0-"
x."
x/"
x0"
x1"
x2"
x3"
x4"
x5"
x6"
x7"
x8"
x9"
x:"
x;"
x<"
x="
x>"
x?"
x@"
xA"
xB"
xC"
0D"
0E"
0F"
0G"
0H"
0I"
0J"
0K"
0L"
0M"
0N"
0U"
0T"
0S"
0R"
0Q"
0P"
0O"
0Y"
0X"
0W"
0V"
0`"
0_"
0^"
0]"
0\"
0["
0Z"
0b"
0a"
zi"
0h"
zg"
0f"
ze"
0d"
zc"
0n"
0m"
0l"
0k"
0j"
0t"
0s"
0r"
0q"
0p"
0o"
0z"
0y"
0x"
0w"
0v"
0u"
0"#
0!#
0~"
0}"
0|"
0{"
0(#
0'#
0&#
0%#
0$#
0##
03#
02#
01#
00#
0/#
0.#
0-#
0,#
0+#
0*#
0)#
05#
04#
0<#
0;#
0:#
09#
08#
07#
06#
0B#
0A#
0@#
0?#
0>#
0=#
0F#
0E#
0D#
0C#
0J#
0I#
0H#
0G#
0L#
0K#
0N#
0M#
$end
#20000
1!
1z
1{
1Z!
1[!
x3#
x2#
x1#
x0#
x/#
x.#
x-#
x,#
x+#
x*#
x)#
xi
xj
xk
xl
xm
xn
xo
xp
xq
xr
xs
xD
xC
xB
xA
x@
x?
x>
x=
x<
x;
x:
#40000
0!
0z
0{
0Z!
0[!
#60000
1!
1z
1{
1Z!
1[!
#80000
0!
0z
0{
0Z!
0[!
#100000
1!
1z
1{
1Z!
1[!
#120000
b100000000000000000000000000000000 #
b101000000000000000000000000000000 #
b101000100000000000000000000000000 #
b101000100100000000000000000000000 #
b101000100110000000000000000000000 #
b101000100111000000000000000000000 #
b101000100111100000000000000000000 #
b101000100111110000000000000000000 #
b101000100111111000000000000000000 #
b101000100111111000010000000000000 #
b101000100111111000010000001000000 #
b101000100111111000010000001010000 #
b101000100111111000010000001010100 #
0!
1H!
1=!
1,!
1~
1'"
1%"
1#"
1!"
1}!
1{!
1\!
1s!
1k!
0z
0{
0Z!
0[!
1>!
1-!
1!!
1("
1&"
1$"
1""
1~!
1|!
1]!
1t!
1l!
#140000
1!
1z
1{
1Z!
1[!
1I#
1G#
1_"
1y"
1(#
1'#
1&#
1%#
1$#
1##
1^!
1l"
1j"
1T
1V
1Q
1]
1^
1_
1`
1a
1b
0V!
0J!
12
11
10
1/
1.
1-
1F
1&
1$
1v!
1u!
1n!
1m!
1/!
1.!
1#!
1"!
#160000
b101100100111111000010000001010100 #
b101100100111111010010000001010100 #
b101100100111111010110000001010100 #
b101100100111111010111000001010100 #
b101100100111111010111000101010100 #
b101100100111111010111000101110100 #
b101100100111111010111000101111100 #
b101100100111111010111000101111110 #
b1100100111111010111000101111110 #
b100100111111010111000101111110 #
b100000111111010111000101111110 #
b100000111011010111000101111110 #
b100000111001010111000101111110 #
b100000111000010111000101111110 #
b100000111000010101000101111110 #
b100000111000010101000100111110 #
0!
1%!
1I!
10!
0,!
18!
1&!
0~
1@!
14!
0'"
0%"
0#"
0\!
1w!
0s!
0k!
0z
0{
0Z!
0[!
11!
0-!
19!
1'!
0!!
1A!
15!
0("
0&"
0$"
0]!
1x!
0t!
0l!
#180000
1!
1z
1{
1Z!
1[!
1J#
0I#
0G#
1x"
1]"
1v"
1`"
0_"
1z"
0y"
1T"
1s"
0(#
0'#
0&#
0^!
1k"
1m"
1X"
1V"
1Y
1[
1W
1U
0Q
0`
0a
0b
12!
0+!
02
01
00
0F
1%
1'
1+
1)
1z!
1y!
0v!
0u!
0n!
0m!
1C!
1B!
1;!
1:!
17!
16!
1`!
1_!
0/!
0.!
1)!
1(!
0#!
0"!
1$!
1K!
1Y!
1S
0Z!
1E
0[!
1,"
1v!
1r!
1n!
0`!
0C!
0;!
07!
1#!
1|
#200000
0!
0z
0{
#220000
1!
1z
1{
1h"
0T"
1t"
1o"
1F#
1<#
1@#
19#
1>#
1B#
1}
1!#
1Y"
1W"
1Z
1\
1g
03!
1+!
18
1,
1*
1*!
1-"
#240000
0!
0z
0{
#260000
1!
1z
1{
0h"
1"#
1{"
1c
1h
02!
0+!
19
14
0K!
0Y!
0S
1Z!
0E
1[!
0,"
0v!
0r!
0n!
1`!
1C!
1;!
17!
0#!
0|
#280000
b10100000111000010101000100111110 #
b10100000111000110101000100111110 #
b10100000111000111101000100111110 #
b10100000111000111101010100111110 #
b10100000111000111101011100111110 #
b10100000111000111101011110111110 #
b10100000111000111101011110111111 #
b10100000101000111101011110111111 #
b10100000100000111101011110111111 #
b10100000100000111101011110101111 #
b10100000100000111101011110101011 #
b10100000100000111101011110100011 #
b10100000100000111101011110100001 #
b10100000100010111101011110100001 #
b10100000100010111111011110100001 #
0!
1x
0%!
0H!
0I!
0=!
1<!
1R!
1L!
1~
1D!
1)"
1%"
0!"
0}!
1o!
0z
0{
0Z!
0[!
1y
0>!
1M!
1!!
1E!
1*"
1&"
0""
0~!
1p!
#300000
1!
1z
1{
1Z!
1[!
1u"
1H#
1\"
1["
1w"
1^"
1y"
1r"
1R"
1p"
0s"
0o"
1U"
0}
1'#
0%#
0$#
0k"
0l"
0j"
0m"
1n"
0X"
0W"
0V"
0Y
0Z
0[
1X
0W
0T
0V
0U
0^
0_
1a
1O!
13!
1e!
1V!
11
0/
0.
0%
0&
0$
0'
1(
0+
0*
0)
1,"
1+"
1r!
1q!
1d!
1c!
1N!
1G!
1F!
1b!
1a!
1#!
1"!
1U!
0$!
0-"
1P!
#320000
b10100000100010101111011110100001 #
b10100000100010101011011110100001 #
b10100000100010101011011010100001 #
b10100000100010101011011010000001 #
b110100000100010101011011010000001 #
b111100000100010101011011010000001 #
b101100000100010101011011010000001 #
b101100000100010100011011010000001 #
b101100000100010100011010010000001 #
b101100000100010100011010000000001 #
b101100000101010100011010000000001 #
b101100000101010100011010000010001 #
b101100000101010100011010000010101 #
0!
1H!
1=!
00!
0<!
08!
0R!
0@!
0D!
04!
1!"
1s!
0o!
1k!
0z
0{
0Z!
0[!
1>!
01!
09!
0A!
0E!
05!
1""
1t!
0p!
1l!
#340000
1!
1z
1{
1Z!
1[!
1I#
0H#
1G#
0\"
0w"
0x"
0^"
0]"
0v"
0`"
1f"
1P"
1q"
1s"
1o"
1Q"
1S"
1%#
1l"
1j"
1|"
1~"
0!#
0{"
1W"
1Z
0c
0g
1f
1d
1T
1V
1_
03!
0e!
1+!
1/
1&
1$
15
17
08
04
1*
1v!
1u!
0r!
0q!
1n!
1m!
0d!
0c!
0G!
0F!
0C!
0B!
0b!
0a!
0;!
0:!
07!
06!
0`!
0_!
1Q!
1T!
1$!
1-"
#360000
b101000000101010100011010000010101 #
b101000000101010100010010000010101 #
b101000000101010000010010000010101 #
b101000000101010000010000000010101 #
b101000000101010000010000000010100 #
b101000000101010000010000000011100 #
b101000000101010000010000000011110 #
b101000000101010000000000000011110 #
b101000000101010000000000100011110 #
b1000000101010000000000100011110 #
b101010000000000100011110 #
b101010000000000110011110 #
0!
0x
1%!
1I!
1<!
18!
0L!
0&!
0~
0)"
0w!
0s!
0k!
0z
0{
0Z!
0[!
0y
19!
0M!
0'!
0!!
0*"
0x!
0t!
0l!
#380000
1!
1z
1{
1Z!
1[!
0u"
0J#
0I#
0G#
0["
1^"
1]"
0z"
0y"
1d"
0q"
0r"
0R"
0p"
0Q"
0S"
0U"
1k"
1m"
0n"
1}"
1!#
1{"
1X"
0W"
1V"
1Y
0Z
1[
1c
1g
1e
0X
1W
1U
0O!
1W!
0+!
1%
1'
0(
16
18
14
1+
0*
1)
0,"
0+"
0z!
0y!
0v!
0u!
0n!
0m!
0N!
1b!
1a!
1;!
1:!
0)!
0(!
0#!
0"!
0T!
0U!
1X!
0P!
#400000
b101010000000000111011110 #
b101010000000000111111110 #
b100010000000000111111110 #
b100000100010000000000111111110 #
b100000100010100000000111111110 #
b100000100010100000000111111111 #
b100000100010100000000111110111 #
b100000100010100000000111110101 #
b100000100010100010000111110101 #
b100000100010100010000011110101 #
b1100000100010100010000011110101 #
b1100000100010100010000001110101 #
0!
1x
0%!
0I!
10!
1,!
0<!
08!
1~
1)"
0!"
1w!
1s!
0z
0{
0Z!
0[!
1y
11!
1-!
09!
1!!
1*"
0""
1x!
1t!
#420000
1!
1z
1{
1Z!
1[!
1u"
1J#
1I#
0^"
0]"
1`"
1_"
1y"
0f"
0P"
1R"
0t"
0s"
0o"
1S"
0%#
0k"
0m"
1n"
0|"
0~"
0}"
0Y"
0X"
0V"
0Y
0[
0\
0e
0f
0d
1X
0W
0U
0_
0W!
0V!
0/
0%
0'
1(
05
07
06
0,
0+
0)
1,"
1+"
1z!
1y!
1v!
1u!
0b!
0a!
0;!
0:!
1`!
1_!
1/!
1.!
1#!
1"!
0Q!
0*!
0$!
0-"
0X!
#440000
b1100000100010100010100001110101 #
b1100000100000100010100001110101 #
b1100000100000100010100001100101 #
b1100000100000100010100001100001 #
b1100000100000100011100001100001 #
b101100000100000100011100001100001 #
b101100000100000100011100000100001 #
b101000000100000100011100000100001 #
0!
0H!
0=!
0,!
1f!
1&!
0%"
0w!
1k!
0z
0{
0Z!
0[!
0>!
0-!
1g!
1'!
0&"
0x!
1l!
#460000
1!
1z
1{
1Z!
1[!
0J#
1G#
1Z"
0_"
1z"
1f"
0d"
0R"
1T"
1s"
1o"
0S"
1U"
0'#
0l"
0j"
0"#
0!#
0{"
1Y"
1X"
1[
1\
0c
0g
0h
0T
0V
0a
12!
1V!
1J!
01
0&
0$
09
08
04
1,
1+
0z!
0y!
1n!
1m!
1i!
1h!
0/!
0.!
1)!
1(!
1$!
1-"
1K!
1Y!
1S
0Z!
1E
0[!
1z!
1r!
0i!
0`!
1|
#480000
0!
0z
0{
#500000
1!
1z
1{
0f"
1h"
0T"
1t"
1=#
0F#
1E#
1C#
16#
0U"
0@#
09#
0>#
1A#
1}
1!#
1{"
1W"
1V"
1Y
1Z
1c
1g
18
14
1*
1)
1*!
#520000
0!
0z
0{
#540000
1!
1z
1{
0h"
1"#
1h
02!
19
0K!
0Y!
0S
1Z!
0E
1[!
0z!
0r!
1i!
1`!
0|
#560000
b101000000000000100011100000100001 #
b101000000000000100011100000000001 #
b101000000000000000011100000000001 #
b101000000000000000011100000000000 #
b101000000000000000001100000000000 #
b100000000000000000001100000000000 #
b100000000000000000001000000000000 #
b100000000000000000000000000000000 #
b0 #
0!
0x
00!
0f!
0&!
0~
0)"
0{!
0s!
0k!
0z
0{
0Z!
0[!
0y
01!
0g!
0'!
0!!
0*"
0|!
0t!
0l!
#580000
1!
1z
1{
1Z!
1[!
0u"
0I#
0G#
0Z"
0`"
0z"
0y"
1O"
1U"
0}
0##
0n"
0Y"
0W"
0Z
0\
0X
0]
1e!
0-
0(
0,
0*
0,"
0+"
0v!
0u!
0n!
0m!
0i!
0h!
0`!
0_!
0)!
0(!
0#!
0"!
1j!
1R
13
#600000
0!
0z
0{
0Z!
0[!
#620000
1!
1z
1{
1Z!
1[!
0t"
0s"
0o"
0O"
0U"
0X"
0V"
0Y
0[
13!
0e!
0+
0)
0*!
0$!
0-"
0j!
0R
03
#640000
0!
0z
0{
0Z!
0[!
#660000
1!
1z
1{
1Z!
1[!
0"#
0!#
0{"
0c
0g
0h
1+!
09
08
04
#680000
0!
0z
0{
0Z!
0[!
#700000
1!
1z
1{
1Z!
1[!
#720000
0!
0z
0{
0Z!
0[!
#740000
1!
1z
1{
1Z!
1[!
#760000
0!
0z
0{
0Z!
0[!
#780000
1!
1z
1{
1Z!
1[!
#800000
0!
0z
0{
0Z!
0[!
#820000
1!
1z
1{
1Z!
1[!
#840000
0!
0z
0{
0Z!
0[!
#860000
1!
1z
1{
1Z!
1[!
#880000
0!
0z
0{
0Z!
0[!
#900000
1!
1z
1{
1Z!
1[!
#920000
0!
0z
0{
0Z!
0[!
