simulation/qsim/TP2_EV21.msim.vcd
$comment
	File created using the following command:
		vcd file TP2_EV21.msim.vcd -direction
$end
$date
	Sat May 22 17:14:05 2021
$end
$version
	ModelSim Version 2020.1
$end
$timescale
	1ps
$end

$scope module TP2_EV21_vlg_vec_tst $end
$var reg 7 ! B [6:0] $end
$var reg 1 " Clk1 $end
$var reg 1 # E $end
$var wire 1 $ MI [32] $end
$var wire 1 % MI [31] $end
$var wire 1 & MI [30] $end
$var wire 1 ' MI [29] $end
$var wire 1 ( MI [28] $end
$var wire 1 ) MI [27] $end
$var wire 1 * MI [26] $end
$var wire 1 + MI [25] $end
$var wire 1 , MI [24] $end
$var wire 1 - MI [23] $end
$var wire 1 . MI [22] $end
$var wire 1 / MI [21] $end
$var wire 1 0 MI [20] $end
$var wire 1 1 MI [19] $end
$var wire 1 2 MI [18] $end
$var wire 1 3 MI [17] $end
$var wire 1 4 MI [16] $end
$var wire 1 5 MI [15] $end
$var wire 1 6 MI [14] $end
$var wire 1 7 MI [13] $end
$var wire 1 8 MI [12] $end
$var wire 1 9 MI [11] $end
$var wire 1 : MI [10] $end
$var wire 1 ; MI [9] $end
$var wire 1 < MI [8] $end
$var wire 1 = MI [7] $end
$var wire 1 > MI [6] $end
$var wire 1 ? MI [5] $end
$var wire 1 @ MI [4] $end
$var wire 1 A MI [3] $end
$var wire 1 B MI [2] $end
$var wire 1 C MI [1] $end
$var wire 1 D MI [0] $end

$scope module i1 $end
$var wire 1 E gnd $end
$var wire 1 F vcc $end
$var wire 1 G unknown $end
$var tri1 1 H devclrn $end
$var tri1 1 I devpor $end
$var tri1 1 J devoe $end
$var wire 1 K MI[32]~output_o $end
$var wire 1 L MI[31]~output_o $end
$var wire 1 M MI[30]~output_o $end
$var wire 1 N MI[29]~output_o $end
$var wire 1 O MI[28]~output_o $end
$var wire 1 P MI[27]~output_o $end
$var wire 1 Q MI[26]~output_o $end
$var wire 1 R MI[25]~output_o $end
$var wire 1 S MI[24]~output_o $end
$var wire 1 T MI[23]~output_o $end
$var wire 1 U MI[22]~output_o $end
$var wire 1 V MI[21]~output_o $end
$var wire 1 W MI[20]~output_o $end
$var wire 1 X MI[19]~output_o $end
$var wire 1 Y MI[18]~output_o $end
$var wire 1 Z MI[17]~output_o $end
$var wire 1 [ MI[16]~output_o $end
$var wire 1 \ MI[15]~output_o $end
$var wire 1 ] MI[14]~output_o $end
$var wire 1 ^ MI[13]~output_o $end
$var wire 1 _ MI[12]~output_o $end
$var wire 1 ` MI[11]~output_o $end
$var wire 1 a MI[10]~output_o $end
$var wire 1 b MI[9]~output_o $end
$var wire 1 c MI[8]~output_o $end
$var wire 1 d MI[7]~output_o $end
$var wire 1 e MI[6]~output_o $end
$var wire 1 f MI[5]~output_o $end
$var wire 1 g MI[4]~output_o $end
$var wire 1 h MI[3]~output_o $end
$var wire 1 i MI[2]~output_o $end
$var wire 1 j MI[1]~output_o $end
$var wire 1 k MI[0]~output_o $end
$var wire 1 l Clk1~input_o $end
$var wire 1 m Clk1~inputclkctrl_outclk $end
$var wire 1 n B[0]~input_o $end
$var wire 1 o B[1]~input_o $end
$var wire 1 p B[2]~input_o $end
$var wire 1 q B[3]~input_o $end
$var wire 1 r B[4]~input_o $end
$var wire 1 s B[5]~input_o $end
$var wire 1 t B[6]~input_o $end
$var wire 1 u E~input_o $end
$var wire 1 v inst|MIR_ROM|srom|rom_block|auto_generated|q_a [32] $end
$var wire 1 w inst|MIR_ROM|srom|rom_block|auto_generated|q_a [31] $end
$var wire 1 x inst|MIR_ROM|srom|rom_block|auto_generated|q_a [30] $end
$var wire 1 y inst|MIR_ROM|srom|rom_block|auto_generated|q_a [29] $end
$var wire 1 z inst|MIR_ROM|srom|rom_block|auto_generated|q_a [28] $end
$var wire 1 { inst|MIR_ROM|srom|rom_block|auto_generated|q_a [27] $end
$var wire 1 | inst|MIR_ROM|srom|rom_block|auto_generated|q_a [26] $end
$var wire 1 } inst|MIR_ROM|srom|rom_block|auto_generated|q_a [25] $end
$var wire 1 ~ inst|MIR_ROM|srom|rom_block|auto_generated|q_a [24] $end
$var wire 1 !! inst|MIR_ROM|srom|rom_block|auto_generated|q_a [23] $end
$var wire 1 "! inst|MIR_ROM|srom|rom_block|auto_generated|q_a [22] $end
$var wire 1 #! inst|MIR_ROM|srom|rom_block|auto_generated|q_a [21] $end
$var wire 1 $! inst|MIR_ROM|srom|rom_block|auto_generated|q_a [20] $end
$var wire 1 %! inst|MIR_ROM|srom|rom_block|auto_generated|q_a [19] $end
$var wire 1 &! inst|MIR_ROM|srom|rom_block|auto_generated|q_a [18] $end
$var wire 1 '! inst|MIR_ROM|srom|rom_block|auto_generated|q_a [17] $end
$var wire 1 (! inst|MIR_ROM|srom|rom_block|auto_generated|q_a [16] $end
$var wire 1 )! inst|MIR_ROM|srom|rom_block|auto_generated|q_a [15] $end
$var wire 1 *! inst|MIR_ROM|srom|rom_block|auto_generated|q_a [14] $end
$var wire 1 +! inst|MIR_ROM|srom|rom_block|auto_generated|q_a [13] $end
$var wire 1 ,! inst|MIR_ROM|srom|rom_block|auto_generated|q_a [12] $end
$var wire 1 -! inst|MIR_ROM|srom|rom_block|auto_generated|q_a [11] $end
$var wire 1 .! inst|MIR_ROM|srom|rom_block|auto_generated|q_a [10] $end
$var wire 1 /! inst|MIR_ROM|srom|rom_block|auto_generated|q_a [9] $end
$var wire 1 0! inst|MIR_ROM|srom|rom_block|auto_generated|q_a [8] $end
$var wire 1 1! inst|MIR_ROM|srom|rom_block|auto_generated|q_a [7] $end
$var wire 1 2! inst|MIR_ROM|srom|rom_block|auto_generated|q_a [6] $end
$var wire 1 3! inst|MIR_ROM|srom|rom_block|auto_generated|q_a [5] $end
$var wire 1 4! inst|MIR_ROM|srom|rom_block|auto_generated|q_a [4] $end
$var wire 1 5! inst|MIR_ROM|srom|rom_block|auto_generated|q_a [3] $end
$var wire 1 6! inst|MIR_ROM|srom|rom_block|auto_generated|q_a [2] $end
$var wire 1 7! inst|MIR_ROM|srom|rom_block|auto_generated|q_a [1] $end
$var wire 1 8! inst|MIR_ROM|srom|rom_block|auto_generated|q_a [0] $end
$var wire 1 9! inst|MIR_ROM|srom|rom_block|auto_generated|ram_block1a0_PORTADATAOUT_bus [35] $end
$var wire 1 :! inst|MIR_ROM|srom|rom_block|auto_generated|ram_block1a0_PORTADATAOUT_bus [34] $end
$var wire 1 ;! inst|MIR_ROM|srom|rom_block|auto_generated|ram_block1a0_PORTADATAOUT_bus [33] $end
$var wire 1 <! inst|MIR_ROM|srom|rom_block|auto_generated|ram_block1a0_PORTADATAOUT_bus [32] $end
$var wire 1 =! inst|MIR_ROM|srom|rom_block|auto_generated|ram_block1a0_PORTADATAOUT_bus [31] $end
$var wire 1 >! inst|MIR_ROM|srom|rom_block|auto_generated|ram_block1a0_PORTADATAOUT_bus [30] $end
$var wire 1 ?! inst|MIR_ROM|srom|rom_block|auto_generated|ram_block1a0_PORTADATAOUT_bus [29] $end
$var wire 1 @! inst|MIR_ROM|srom|rom_block|auto_generated|ram_block1a0_PORTADATAOUT_bus [28] $end
$var wire 1 A! inst|MIR_ROM|srom|rom_block|auto_generated|ram_block1a0_PORTADATAOUT_bus [27] $end
$var wire 1 B! inst|MIR_ROM|srom|rom_block|auto_generated|ram_block1a0_PORTADATAOUT_bus [26] $end
$var wire 1 C! inst|MIR_ROM|srom|rom_block|auto_generated|ram_block1a0_PORTADATAOUT_bus [25] $end
$var wire 1 D! inst|MIR_ROM|srom|rom_block|auto_generated|ram_block1a0_PORTADATAOUT_bus [24] $end
$var wire 1 E! inst|MIR_ROM|srom|rom_block|auto_generated|ram_block1a0_PORTADATAOUT_bus [23] $end
$var wire 1 F! inst|MIR_ROM|srom|rom_block|auto_generated|ram_block1a0_PORTADATAOUT_bus [22] $end
$var wire 1 G! inst|MIR_ROM|srom|rom_block|auto_generated|ram_block1a0_PORTADATAOUT_bus [21] $end
$var wire 1 H! inst|MIR_ROM|srom|rom_block|auto_generated|ram_block1a0_PORTADATAOUT_bus [20] $end
$var wire 1 I! inst|MIR_ROM|srom|rom_block|auto_generated|ram_block1a0_PORTADATAOUT_bus [19] $end
$var wire 1 J! inst|MIR_ROM|srom|rom_block|auto_generated|ram_block1a0_PORTADATAOUT_bus [18] $end
$var wire 1 K! inst|MIR_ROM|srom|rom_block|auto_generated|ram_block1a0_PORTADATAOUT_bus [17] $end
$var wire 1 L! inst|MIR_ROM|srom|rom_block|auto_generated|ram_block1a0_PORTADATAOUT_bus [16] $end
$var wire 1 M! inst|MIR_ROM|srom|rom_block|auto_generated|ram_block1a0_PORTADATAOUT_bus [15] $end
$var wire 1 N! inst|MIR_ROM|srom|rom_block|auto_generated|ram_block1a0_PORTADATAOUT_bus [14] $end
$var wire 1 O! inst|MIR_ROM|srom|rom_block|auto_generated|ram_block1a0_PORTADATAOUT_bus [13] $end
$var wire 1 P! inst|MIR_ROM|srom|rom_block|auto_generated|ram_block1a0_PORTADATAOUT_bus [12] $end
$var wire 1 Q! inst|MIR_ROM|srom|rom_block|auto_generated|ram_block1a0_PORTADATAOUT_bus [11] $end
$var wire 1 R! inst|MIR_ROM|srom|rom_block|auto_generated|ram_block1a0_PORTADATAOUT_bus [10] $end
$var wire 1 S! inst|MIR_ROM|srom|rom_block|auto_generated|ram_block1a0_PORTADATAOUT_bus [9] $end
$var wire 1 T! inst|MIR_ROM|srom|rom_block|auto_generated|ram_block1a0_PORTADATAOUT_bus [8] $end
$var wire 1 U! inst|MIR_ROM|srom|rom_block|auto_generated|ram_block1a0_PORTADATAOUT_bus [7] $end
$var wire 1 V! inst|MIR_ROM|srom|rom_block|auto_generated|ram_block1a0_PORTADATAOUT_bus [6] $end
$var wire 1 W! inst|MIR_ROM|srom|rom_block|auto_generated|ram_block1a0_PORTADATAOUT_bus [5] $end
$var wire 1 X! inst|MIR_ROM|srom|rom_block|auto_generated|ram_block1a0_PORTADATAOUT_bus [4] $end
$var wire 1 Y! inst|MIR_ROM|srom|rom_block|auto_generated|ram_block1a0_PORTADATAOUT_bus [3] $end
$var wire 1 Z! inst|MIR_ROM|srom|rom_block|auto_generated|ram_block1a0_PORTADATAOUT_bus [2] $end
$var wire 1 [! inst|MIR_ROM|srom|rom_block|auto_generated|ram_block1a0_PORTADATAOUT_bus [1] $end
$var wire 1 \! inst|MIR_ROM|srom|rom_block|auto_generated|ram_block1a0_PORTADATAOUT_bus [0] $end
$upscope $end
$upscope $end
$enddefinitions $end
#0
$dumpvars
b0 !
0"
1#
0D
0C
0B
0A
0@
0?
0>
0=
0<
0;
0:
09
08
07
06
05
04
03
02
01
00
0/
0.
0-
0,
0+
0*
0)
0(
0'
0&
0%
0$
0E
1F
xG
1H
1I
1J
0K
0L
0M
0N
0O
0P
0Q
0R
0S
0T
0U
0V
0W
0X
0Y
0Z
0[
0\
0]
0^
0_
0`
0a
0b
0c
0d
0e
0f
0g
0h
0i
0j
0k
0l
0m
0n
0o
0p
0q
0r
0s
0t
1u
08!
07!
06!
05!
04!
03!
02!
01!
00!
0/!
0.!
0-!
0,!
0+!
0*!
0)!
0(!
0'!
0&!
0%!
0$!
0#!
0"!
0!!
0~
0}
0|
0{
0z
0y
0x
0w
0v
0\!
0[!
0Z!
0Y!
0X!
0W!
0V!
0U!
0T!
0S!
0R!
0Q!
0P!
0O!
0N!
0M!
0L!
0K!
0J!
0I!
0H!
0G!
0F!
0E!
0D!
0C!
0B!
0A!
0@!
0?!
0>!
0=!
0<!
0;!
0:!
09!
$end
#500
1"
1l
1m
#1000
0"
0l
0m
1W!
1V!
1O!
1K!
1I!
1E!
1?!
1>!
13!
12!
1+!
1'!
1%!
1!!
1y
1x
1M
1N
1T
1X
1Z
1^
1e
1f
1?
1>
17
13
11
1-
1'
1&
#1500
1"
1l
1m
#2000
b1 !
0"
1n
0l
0m
#2500
1"
1l
1m
#3000
0"
0l
0m
0W!
0V!
1R!
1P!
0I!
0E!
1<!
03!
02!
1.!
1,!
0%!
0!!
1v
1K
0T
0X
1_
1a
0e
0f
0?
0>
1:
18
01
0-
1$
#3500
1"
1l
1m
#4000
b11 !
b10 !
0"
0n
1o
0l
0m
#4500
1"
1l
1m
#5000
0"
0l
0m
0?!
0>!
1=!
0y
0x
1w
1L
0M
0N
0'
0&
1%
#5500
1"
1l
1m
#6000
b11 !
0"
1n
0l
0m
#6500
1"
1l
1m
#7000
0"
0l
0m
0R!
1Q!
0=!
0<!
0.!
1-!
0w
0v
0K
0L
1`
0a
0:
19
0%
0$
#7500
1"
1l
1m
#8000
b111 !
b101 !
b100 !
0"
0n
0o
1p
0l
0m
#8500
1"
1l
1m
#9000
0"
0l
0m
1V!
1U!
0Q!
0P!
12!
11!
0-!
0,!
0_
0`
1d
1e
1>
1=
09
08
#9500
1"
1l
1m
#10000
b101 !
0"
1n
0l
0m
#10500
1"
1l
1m
#11000
0"
0l
0m
1W!
1I!
1E!
1?!
1>!
1=!
13!
1%!
1!!
1y
1x
1w
1L
1M
1N
1T
1X
1f
1?
11
1-
1'
1&
1%
#11500
1"
1l
1m
#12000
b111 !
b110 !
0"
0n
1o
0l
0m
#12500
1"
1l
1m
#13000
0"
0l
0m
0?!
0y
0N
0'
#13500
1"
1l
1m
#14000
b111 !
0"
1n
0l
0m
#14500
1"
1l
1m
#15000
0"
0l
0m
1S!
1R!
1?!
0>!
1/!
1.!
1y
0x
0M
1N
1a
1b
1;
1:
1'
0&
#15500
1"
1l
1m
#16000
b1111 !
b1011 !
b1001 !
b1000 !
0"
0n
0o
0p
1q
0l
0m
#16500
1"
1l
1m
#17000
0"
0l
0m
0W!
0U!
0S!
0R!
0I!
0E!
1B!
0?!
0=!
03!
01!
0/!
0.!
0%!
0!!
1|
0y
0w
0L
0N
1Q
0T
0X
0a
0b
0d
0f
0?
0=
0;
0:
01
0-
1*
0'
0%
#17500
1"
1l
1m
#18000
b1001 !
0"
1n
0l
0m
#18500
1"
1l
1m
#19000
0"
0l
0m
#19500
1"
1l
1m
#20000
b1011 !
b1010 !
0"
0n
1o
0l
0m
#20500
1"
1l
1m
#21000
0"
0l
0m
1W!
1I!
1E!
1?!
1>!
1=!
13!
1%!
1!!
1y
1x
1w
1L
1M
1N
1T
1X
1f
1?
11
1-
1'
1&
1%
#21500
1"
1l
1m
#22000
b1011 !
0"
1n
0l
0m
#22500
1"
1l
1m
#23000
0"
0l
0m
#23500
1"
1l
1m
#24000
b1111 !
b1101 !
b1100 !
0"
0n
0o
1p
0l
0m
#24500
1"
1l
1m
#25000
0"
0l
0m
0?!
0y
0N
0'
#25500
1"
1l
1m
#26000
b1101 !
0"
1n
0l
0m
#26500
1"
1l
1m
#27000
0"
0l
0m
#27500
1"
1l
1m
#28000
b1111 !
b1110 !
0"
0n
1o
0l
0m
#28500
1"
1l
1m
#29000
0"
0l
0m
1S!
1R!
1?!
0>!
1/!
1.!
1y
0x
0M
1N
1a
1b
1;
1:
1'
0&
#29500
1"
1l
1m
#30000
b1111 !
0"
1n
0l
0m
#30500
1"
1l
1m
#31000
0"
0l
0m
#31500
1"
1l
1m
#32000
b11111 !
b10111 !
b10011 !
b10001 !
b10000 !
0"
0n
0o
0p
0q
1r
0l
0m
#32500
1"
1l
1m
#33000
0"
0l
0m
0W!
0V!
1U!
1T!
0S!
0R!
0O!
0K!
0I!
0E!
0B!
0?!
0=!
03!
02!
11!
10!
0/!
0.!
0+!
0'!
0%!
0!!
0|
0y
0w
0L
0N
0Q
0T
0X
0Z
0^
0a
0b
1c
1d
0e
0f
0?
0>
1=
1<
0;
0:
07
03
01
0-
0*
0'
0%
#33500
1"
1l
1m
#34000
b10001 !
0"
1n
0l
0m
#34500
1"
1l
1m
#35000
0"
0l
0m
#35500
1"
1l
1m
#36000
b10011 !
b10010 !
0"
0n
1o
0l
0m
#36500
1"
1l
1m
#37000
0"
0l
0m
#37500
1"
1l
1m
#38000
b10011 !
0"
1n
0l
0m
#38500
1"
1l
1m
#39000
0"
0l
0m
#39500
1"
1l
1m
#40000
b10111 !
b10101 !
b10100 !
0"
0n
0o
1p
0l
0m
#40500
1"
1l
1m
#41000
0"
0l
0m
#41500
1"
1l
1m
#42000
b10101 !
0"
1n
0l
0m
#42500
1"
1l
1m
#43000
0"
0l
0m
#43500
1"
1l
1m
#44000
b10111 !
b10110 !
0"
0n
1o
0l
0m
#44500
1"
1l
1m
#45000
0"
0l
0m
#45500
1"
1l
1m
#46000
b10111 !
0"
1n
0l
0m
#46500
1"
1l
1m
#47000
0"
0l
0m
#47500
1"
1l
1m
#48000
b11111 !
b11011 !
b11001 !
b11000 !
0"
0n
0o
0p
1q
0l
0m
#48500
1"
1l
1m
#49000
0"
0l
0m
1W!
0U!
1I!
1E!
1?!
13!
01!
1%!
1!!
1y
1N
1T
1X
0d
1f
1?
0=
11
1-
1'
#49500
1"
1l
1m
#50000
b11001 !
0"
1n
0l
0m
#50500
1"
1l
1m
#51000
0"
0l
0m
#51500
1"
1l
1m
#52000
b11011 !
b11010 !
0"
0n
1o
0l
0m
#52500
1"
1l
1m
#53000
0"
0l
0m
#53500
1"
1l
1m
#54000
b11011 !
0"
1n
0l
0m
#54500
1"
1l
1m
#55000
0"
0l
0m
#55500
1"
1l
1m
#56000
b11111 !
b11101 !
b11100 !
0"
0n
0o
1p
0l
0m
#56500
1"
1l
1m
#57000
0"
0l
0m
#57500
1"
1l
1m
#58000
b11101 !
0"
1n
0l
0m
#58500
1"
1l
1m
#59000
0"
0l
0m
#59500
1"
1l
1m
#60000
b11111 !
b11110 !
0"
0n
1o
0l
0m
#60500
1"
1l
1m
#61000
0"
0l
0m
#61500
1"
1l
1m
#62000
b11111 !
0"
1n
0l
0m
#62500
1"
1l
1m
#63000
0"
0l
0m
#63500
1"
1l
1m
#64000
b111111 !
b101111 !
b100111 !
b100011 !
b100001 !
b100000 !
0"
0n
0o
0p
0q
0r
1s
0l
0m
#64500
1"
1l
1m
#65000
0"
0l
0m
0T!
1P!
1O!
1K!
0I!
0E!
1D!
1C!
0?!
00!
1,!
1+!
1'!
0%!
0!!
1~
1}
0y
0N
1R
1S
0T
0X
1Z
1^
1_
0c
0<
18
17
13
01
0-
1,
1+
0'
#65500
1"
1l
1m
#66000
b100001 !
0"
1n
0l
0m
#66500
1"
1l
1m
#67000
0"
0l
0m
#67500
1"
1l
1m
#68000
b100011 !
b100010 !
0"
0n
1o
0l
0m
#68500
1"
1l
1m
#69000
0"
0l
0m
#69500
1"
1l
1m
#70000
b100011 !
0"
1n
0l
0m
#70500
1"
1l
1m
#71000
0"
0l
0m
#71500
1"
1l
1m
#72000
b100111 !
b100101 !
b100100 !
0"
0n
0o
1p
0l
0m
#72500
1"
1l
1m
#73000
0"
0l
0m
#73500
1"
1l
1m
#74000
b100101 !
0"
1n
0l
0m
#74500
1"
1l
1m
#75000
0"
0l
0m
#75500
1"
1l
1m
#76000
b100111 !
b100110 !
0"
0n
1o
0l
0m
#76500
1"
1l
1m
#77000
0"
0l
0m
#77500
1"
1l
1m
#78000
b100111 !
0"
1n
0l
0m
#78500
1"
1l
1m
#79000
0"
0l
0m
#79500
1"
1l
1m
#80000
b101111 !
b101011 !
b101001 !
b101000 !
0"
0n
0o
0p
1q
0l
0m
#80500
1"
1l
1m
#81000
0"
0l
0m
0W!
1V!
0D!
0C!
03!
12!
0~
0}
0R
0S
1e
0f
0?
1>
0,
0+
#81500
1"
1l
1m
#82000
b101001 !
0"
1n
0l
0m
#82500
1"
1l
1m
#83000
0"
0l
0m
#83500
1"
1l
1m
#84000
b101011 !
b101010 !
0"
0n
1o
0l
0m
#84500
1"
1l
1m
#85000
0"
0l
0m
#85500
1"
1l
1m
#86000
b101011 !
0"
1n
0l
0m
#86500
1"
1l
1m
#87000
0"
0l
0m
#87500
1"
1l
1m
#88000
b101111 !
b101101 !
b101100 !
0"
0n
0o
1p
0l
0m
#88500
1"
1l
1m
#89000
0"
0l
0m
#89500
1"
1l
1m
#90000
b101101 !
0"
1n
0l
0m
#90500
1"
1l
1m
#91000
0"
0l
0m
#91500
1"
1l
1m
#92000
b101111 !
b101110 !
0"
0n
1o
0l
0m
#92500
1"
1l
1m
#93000
0"
0l
0m
#93500
1"
1l
1m
#94000
b101111 !
0"
1n
0l
0m
#94500
1"
1l
1m
#95000
0"
0l
0m
#95500
1"
1l
1m
#96000
b111111 !
b110111 !
b110011 !
b110001 !
b110000 !
0"
0n
0o
0p
0q
1r
0l
0m
#96500
1"
1l
1m
#97000
0"
0l
0m
1W!
0V!
1U!
1T!
1S!
1R!
0P!
0O!
0K!
1I!
1E!
1?!
1=!
13!
02!
11!
10!
1/!
1.!
0,!
0+!
0'!
1%!
1!!
1y
1w
1L
1N
1T
1X
0Z
0^
0_
1a
1b
1c
1d
0e
1f
1?
0>
1=
1<
1;
1:
08
07
03
11
1-
1'
1%
#97500
1"
1l
1m
#98000
b110001 !
0"
1n
0l
0m
#98500
1"
1l
1m
#99000
0"
0l
0m
#99500
1"
1l
1m
#100000
b110011 !
b110010 !
0"
0n
1o
0l
0m
#100500
1"
1l
1m
#101000
0"
0l
0m
#101500
1"
1l
1m
#102000
b110011 !
0"
1n
0l
0m
#102500
1"
1l
1m
#103000
0"
0l
0m
#103500
1"
1l
1m
#104000
b110111 !
b110101 !
b110100 !
0"
0n
0o
1p
0l
0m
#104500
1"
1l
1m
#105000
0"
0l
0m
#105500
1"
1l
1m
#106000
b110101 !
0"
1n
0l
0m
#106500
1"
1l
1m
#107000
0"
0l
0m
#107500
1"
1l
1m
#108000
b110111 !
b110110 !
0"
0n
1o
0l
0m
#108500
1"
1l
1m
#109000
0"
0l
0m
#109500
1"
1l
1m
#110000
b110111 !
0"
1n
0l
0m
#110500
1"
1l
1m
#111000
0"
0l
0m
#111500
1"
1l
1m
#112000
b111111 !
b111011 !
b111001 !
b111000 !
0"
0n
0o
0p
1q
0l
0m
#112500
1"
1l
1m
#113000
0"
0l
0m
0W!
0U!
0T!
0S!
0R!
1Q!
1P!
1O!
1K!
0I!
0E!
0?!
0=!
03!
01!
00!
0/!
0.!
1-!
1,!
1+!
1'!
0%!
0!!
0y
0w
0L
0N
0T
0X
1Z
1^
1_
1`
0a
0b
0c
0d
0f
0?
0=
0<
0;
0:
19
18
17
13
01
0-
0'
0%
#113500
1"
1l
1m
#114000
b111001 !
0"
1n
0l
0m
#114500
1"
1l
1m
#115000
0"
0l
0m
#115500
1"
1l
1m
#116000
b111011 !
b111010 !
0"
0n
1o
0l
0m
#116500
1"
1l
1m
#117000
0"
0l
0m
#117500
1"
1l
1m
#118000
b111011 !
0"
1n
0l
0m
#118500
1"
1l
1m
#119000
0"
0l
0m
#119500
1"
1l
1m
#120000
b111111 !
b111101 !
b111100 !
0"
0n
0o
1p
0l
0m
#120500
1"
1l
1m
#121000
0"
0l
0m
#121500
1"
1l
1m
#122000
b111101 !
0"
1n
0l
0m
#122500
1"
1l
1m
#123000
0"
0l
0m
#123500
1"
1l
1m
#124000
b111111 !
b111110 !
0"
0n
1o
0l
0m
#124500
1"
1l
1m
#125000
0"
0l
0m
#125500
1"
1l
1m
#126000
b111111 !
0"
1n
0l
0m
#126500
1"
1l
1m
#127000
0"
0l
0m
#127500
1"
1l
1m
#128000
b1111111 !
b1011111 !
b1001111 !
b1000111 !
b1000011 !
b1000001 !
b1000000 !
0"
0n
0o
0p
0q
0r
0s
1t
0l
0m
#128500
1"
1l
1m
#129000
0"
0l
0m
#129500
1"
1l
1m
#130000
b1000001 !
0"
1n
0l
0m
#130500
1"
1l
1m
#131000
0"
0l
0m
#131500
1"
1l
1m
#132000
b1000011 !
b1000010 !
0"
0n
1o
0l
0m
#132500
1"
1l
1m
#133000
0"
0l
0m
#133500
1"
1l
1m
#134000
b1000011 !
0"
1n
0l
0m
#134500
1"
1l
1m
#135000
0"
0l
0m
#135500
1"
1l
1m
#136000
b1000111 !
b1000101 !
b1000100 !
0"
0n
0o
1p
0l
0m
#136500
1"
1l
1m
#137000
0"
0l
0m
#137500
1"
1l
1m
#138000
b1000101 !
0"
1n
0l
0m
#138500
1"
1l
1m
#139000
0"
0l
0m
#139500
1"
1l
1m
#140000
b1000111 !
b1000110 !
0"
0n
1o
0l
0m
#140500
1"
1l
1m
#141000
0"
0l
0m
#141500
1"
1l
1m
#142000
b1000111 !
0"
1n
0l
0m
#142500
1"
1l
1m
#143000
0"
0l
0m
#143500
1"
1l
1m
#144000
b1001111 !
b1001011 !
b1001001 !
b1001000 !
0"
0n
0o
0p
1q
0l
0m
#144500
1"
1l
1m
#145000
0"
0l
0m
#145500
1"
1l
1m
#146000
b1001001 !
0"
1n
0l
0m
#146500
1"
1l
1m
#147000
0"
0l
0m
#147500
1"
1l
1m
#148000
b1001011 !
b1001010 !
0"
0n
1o
0l
0m
#148500
1"
1l
1m
#149000
0"
0l
0m
#149500
1"
1l
1m
#150000
b1001011 !
0"
1n
0l
0m
#150500
1"
1l
1m
#151000
0"
0l
0m
#151500
1"
1l
1m
#152000
b1001111 !
b1001101 !
b1001100 !
0"
0n
0o
1p
0l
0m
#152500
1"
1l
1m
#153000
0"
0l
0m
#153500
1"
1l
1m
#154000
b1001101 !
0"
1n
0l
0m
#154500
1"
1l
1m
#155000
0"
0l
0m
#155500
1"
1l
1m
#156000
b1001111 !
b1001110 !
0"
0n
1o
0l
0m
#156500
1"
1l
1m
#157000
0"
0l
0m
#157500
1"
1l
1m
#158000
b1001111 !
0"
1n
0l
0m
#158500
1"
1l
1m
#159000
0"
0l
0m
#159500
1"
1l
1m
#160000
b1011111 !
b1010111 !
b1010011 !
b1010001 !
b1010000 !
0"
0n
0o
0p
0q
1r
0l
0m
#160500
1"
1l
1m
#161000
0"
0l
0m
1W!
13!
1f
1?
#161500
1"
1l
1m
#162000
b1010001 !
0"
1n
0l
0m
#162500
1"
1l
1m
#163000
0"
0l
0m
#163500
1"
1l
1m
#164000
b1010011 !
b1010010 !
0"
0n
1o
0l
0m
#164500
1"
1l
1m
#165000
0"
0l
0m
#165500
1"
1l
1m
#166000
b1010011 !
0"
1n
0l
0m
#166500
1"
1l
1m
#167000
0"
0l
0m
#167500
1"
1l
1m
#168000
b1010111 !
b1010101 !
b1010100 !
0"
0n
0o
1p
0l
0m
#168500
1"
1l
1m
#169000
0"
0l
0m
#169500
1"
1l
1m
#170000
b1010101 !
0"
1n
0l
0m
#170500
1"
1l
1m
#171000
0"
0l
0m
#171500
1"
1l
1m
#172000
b1010111 !
b1010110 !
0"
0n
1o
0l
0m
#172500
1"
1l
1m
#173000
0"
0l
0m
#173500
1"
1l
1m
#174000
b1010111 !
0"
1n
0l
0m
#174500
1"
1l
1m
#175000
0"
0l
0m
#175500
1"
1l
1m
#176000
b1011111 !
b1011011 !
b1011001 !
b1011000 !
0"
0n
0o
0p
1q
0l
0m
#176500
1"
1l
1m
#177000
0"
0l
0m
#177500
1"
1l
1m
#178000
b1011001 !
0"
1n
0l
0m
#178500
1"
1l
1m
#179000
0"
0l
0m
#179500
1"
1l
1m
#180000
b1011011 !
b1011010 !
0"
0n
1o
0l
0m
#180500
1"
1l
1m
#181000
0"
0l
0m
#181500
1"
1l
1m
#182000
b1011011 !
0"
1n
0l
0m
#182500
1"
1l
1m
#183000
0"
0l
0m
#183500
1"
1l
1m
#184000
b1011111 !
b1011101 !
b1011100 !
0"
0n
0o
1p
0l
0m
#184500
1"
1l
1m
#185000
0"
0l
0m
#185500
1"
1l
1m
#186000
b1011101 !
0"
1n
0l
0m
#186500
1"
1l
1m
#187000
0"
0l
0m
#187500
1"
1l
1m
#188000
b1011111 !
b1011110 !
0"
0n
1o
0l
0m
#188500
1"
1l
1m
#189000
0"
0l
0m
#189500
1"
1l
1m
#190000
b1011111 !
0"
1n
0l
0m
#190500
1"
1l
1m
#191000
0"
0l
0m
#191500
1"
1l
1m
#192000
b1111111 !
b1101111 !
b1100111 !
b1100011 !
b1100001 !
b1100000 !
0"
0n
0o
0p
0q
0r
1s
0l
0m
#192500
1"
1l
1m
#193000
0"
0l
0m
#193500
1"
1l
1m
#194000
b1100001 !
0"
1n
0l
0m
#194500
1"
1l
1m
#195000
0"
0l
0m
#195500
1"
1l
1m
#196000
b1100011 !
b1100010 !
0"
0n
1o
0l
0m
#196500
1"
1l
1m
#197000
0"
0l
0m
#197500
1"
1l
1m
#198000
b1100011 !
0"
1n
0l
0m
#198500
1"
1l
1m
#199000
0"
0l
0m
#199500
1"
1l
1m
#200000
b1100111 !
b1100101 !
b1100100 !
0"
0n
0o
1p
0l
0m
#200500
1"
1l
1m
#201000
0"
0l
0m
#201500
1"
1l
1m
#202000
b1100101 !
0"
1n
0l
0m
#202500
1"
1l
1m
#203000
0"
0l
0m
#203500
1"
1l
1m
#204000
b1100111 !
b1100110 !
0"
0n
1o
0l
0m
#204500
1"
1l
1m
#205000
0"
0l
0m
#205500
1"
1l
1m
#206000
b1100111 !
0"
1n
0l
0m
#206500
1"
1l
1m
#207000
0"
0l
0m
#207500
1"
1l
1m
#208000
b1101111 !
b1101011 !
b1101001 !
b1101000 !
0"
0n
0o
0p
1q
0l
0m
#208500
1"
1l
1m
#209000
0"
0l
0m
#209500
1"
1l
1m
#210000
b1101001 !
0"
1n
0l
0m
#210500
1"
1l
1m
#211000
0"
0l
0m
#211500
1"
1l
1m
#212000
b1101011 !
b1101010 !
0"
0n
1o
0l
0m
#212500
1"
1l
1m
#213000
0"
0l
0m
#213500
1"
1l
1m
#214000
b1101011 !
0"
1n
0l
0m
#214500
1"
1l
1m
#215000
0"
0l
0m
#215500
1"
1l
1m
#216000
b1101111 !
b1101101 !
b1101100 !
0"
0n
0o
1p
0l
0m
#216500
1"
1l
1m
#217000
0"
0l
0m
#217500
1"
1l
1m
